\relax 
\providecommand\hyper@newdestlabel[2]{}
\providecommand\HyperFirstAtBeginDocument{\AtBeginDocument}
\HyperFirstAtBeginDocument{\ifx\hyper@anchor\@undefined
\global\let\oldcontentsline\contentsline
\gdef\contentsline#1#2#3#4{\oldcontentsline{#1}{#2}{#3}}
\global\let\oldnewlabel\newlabel
\gdef\newlabel#1#2{\newlabelxx{#1}#2}
\gdef\newlabelxx#1#2#3#4#5#6{\oldnewlabel{#1}{{#2}{#3}}}
\AtEndDocument{\ifx\hyper@anchor\@undefined
\let\contentsline\oldcontentsline
\let\newlabel\oldnewlabel
\fi}
\fi}
\global\let\hyper@last\relax 
\gdef\HyperFirstAtBeginDocument#1{#1}
\providecommand\HyField@AuxAddToFields[1]{}
\providecommand\HyField@AuxAddToCoFields[2]{}
\@writefile{toc}{\contentsline {part}{I\hspace  {1em}Topological Groups \& Haar Measure}{1}{part.1}}
\newmarginnote{note.3.1}{{3}{4736286sp}}
\@writefile{toc}{\contentsline {section}{\numberline {1}Topological Groups}{1}{section.1}}
\@writefile{toc}{\contentsline {subsection}{\numberline {1.1}Definition \& Example}{1}{subsection.1.1}}
\newmarginnote{note.6.1}{{6}{4736286sp}}
\@writefile{toc}{\contentsline {section}{\numberline {2}Compactness or Local Compactness of Examples}{5}{section.2}}
\newmarginnote{note.9.1}{{9}{4736286sp}}
\@writefile{toc}{\contentsline {subsection}{\numberline {2.1}Facts about Topological Groups}{8}{subsection.2.1}}
\newmarginnote{note.10.1}{{11}{4736286sp}}
\@writefile{toc}{\contentsline {section}{\numberline {3}Haar Measure \& Homogeneous Spaces}{11}{section.3}}
\newmarginnote{note.12.1}{{13}{4736286sp}}
\@writefile{toc}{\contentsline {subsection}{\numberline {3.1}Existence of Haar Measure}{12}{subsection.3.1}}
\@writefile{toc}{\contentsline {subsection}{\numberline {3.2}Uniqueness of Haar Measure}{12}{subsection.3.2}}
\newmarginnote{note.14.1}{{14}{4736286sp}}
\newmarginnote{note.18.1}{{18}{4736286sp}}
\@writefile{toc}{\contentsline {subsection}{\numberline {3.3}Homogeneous Spaces}{18}{subsection.3.3}}
\newmarginnote{note.21.1}{{21}{4736286sp}}
\newmarginnote{note.25.1}{{25}{10353143sp}}
\newmarginnote{note.26.1}{{26}{4736286sp}}
\newmarginnote{note.27.1}{{27}{4736286sp}}
\@writefile{toc}{\contentsline {part}{II\hspace  {1em}Lie Groups \& Lie Algebra}{27}{part.2}}
\@writefile{toc}{\contentsline {section}{\numberline {4}Lie Groups}{27}{section.4}}
\newmarginnote{note.29.1}{{29}{4736286sp}}
\newlabel{Lie Group - Regular Submanifold}{{4.3}{28}{}{thm.4.3}{}}
\newmarginnote{note.31.1}{{31}{4736286sp}}
\newlabel{Lie Group - Closed Subgroup}{{4.6}{30}{}{thm.4.6}{}}
\@writefile{toc}{\contentsline {subsection}{\numberline {4.1}General Facts about Lie Groups and Lie Algebras}{30}{subsection.4.1}}
\@writefile{toc}{\contentsline {section}{\numberline {5}Lie Algebra}{32}{section.5}}
\newmarginnote{note.33.1}{{34}{10274445sp}}
\@writefile{toc}{\contentsline {subsection}{\numberline {5.1}Invariant Vector Fields: The Lie Algebra of a Lie Group}{33}{subsection.5.1}}
\newmarginnote{note.36.1}{{37}{4736286sp}}
\newlabel{Proposition: Lie Grp Homomorphism induces Lie Alg Homomorphism}{{5.14}{36}{}{thm.5.14}{}}
\newmarginnote{note.39.1}{{39}{8425790sp}}
\newmarginnote{note.42.1}{{42}{4736286sp}}
\newlabel{Theorem: Correspondence of Lie Groups and Lie Algebra}{{5.30}{40}{}{thm.5.30}{}}
\newmarginnote{note.45.1}{{45}{10206099sp}}
\newmarginnote{note.46.1}{{46}{4736286sp}}
\@writefile{toc}{\contentsline {section}{\numberline {6}Exponential Map}{46}{section.6}}
\@writefile{toc}{\contentsline {subsection}{\numberline {6.1}Properties of the Exponential Map}{46}{subsection.6.1}}
\newmarginnote{note.49.1}{{49}{9294675sp}}
\newlabel{Theorem: Conn. Loc. Comp. Grp. w/o Small Subgroup}{{6.9}{51}{}{thm.6.9}{}}
\newlabel{Theorem: Peter-Weyl}{{6.11}{51}{}{thm.6.11}{}}
\newmarginnote{note.53.1}{{53}{4736286sp}}
\newmarginnote{note.56.1}{{56}{4736286sp}}
\newmarginnote{note.57.1}{{57}{4736286sp}}
\@writefile{toc}{\contentsline {section}{\numberline {7}The Adjoint Representations}{57}{section.7}}
\newmarginnote{note.59.1}{{59}{10095819sp}}
\@writefile{toc}{\contentsline {part}{III\hspace  {1em}Structure Theory}{59}{part.3}}
\@writefile{toc}{\contentsline {section}{\numberline {8}Stability}{59}{section.8}}
\newmarginnote{note.61.1}{{61}{4736286sp}}
\newlabel{Theorem: Lie Theorem}{{8.8}{61}{}{thm.8.8}{}}
\@writefile{toc}{\contentsline {subsection}{\numberline {8.1}Application of Lie's Theorem}{63}{subsection.8.1}}
\newmarginnote{note.65.1}{{65}{4736286sp}}
\@writefile{toc}{\contentsline {section}{\numberline {9}Nilpotency}{65}{section.9}}
\newmarginnote{note.67.1}{{67}{4736286sp}}
\newmarginnote{note.70.1}{{71}{4736286sp}}
\@writefile{toc}{\contentsline {subsection}{\numberline {9.1}Semi-Simplicity}{70}{subsection.9.1}}
\newlabel{Theorem: Dieudonne's Theorem}{{9.27}{71}{}{thm.9.27}{}}
\newmarginnote{note.73.1}{{73}{4736286sp}}
\@writefile{toc}{\contentsline {subsection}{\numberline {9.2}Compact Groups}{72}{subsection.9.2}}
\newmarginnote{note.75.1}{{75}{4736286sp}}
\newlabel{LastPage}{{}{76}{}{page.76}{}}
\xdef\lastpage@lastpage{76}
\xdef\lastpage@lastpageHy{76}
