\relax 
\providecommand\hyper@newdestlabel[2]{}
\providecommand\HyperFirstAtBeginDocument{\AtBeginDocument}
\HyperFirstAtBeginDocument{\ifx\hyper@anchor\@undefined
\global\let\oldcontentsline\contentsline
\gdef\contentsline#1#2#3#4{\oldcontentsline{#1}{#2}{#3}}
\global\let\oldnewlabel\newlabel
\gdef\newlabel#1#2{\newlabelxx{#1}#2}
\gdef\newlabelxx#1#2#3#4#5#6{\oldnewlabel{#1}{{#2}{#3}}}
\AtEndDocument{\ifx\hyper@anchor\@undefined
\let\contentsline\oldcontentsline
\let\newlabel\oldnewlabel
\fi}
\fi}
\global\let\hyper@last\relax 
\gdef\HyperFirstAtBeginDocument#1{#1}
\providecommand\HyField@AuxAddToFields[1]{}
\providecommand\HyField@AuxAddToCoFields[2]{}
\@writefile{toc}{\contentsline {section}{\numberline {1}Metric Spaces}{1}{section.1}}
\@writefile{toc}{\contentsline {section}{\numberline {2}Banach Spaces}{1}{section.2}}
\@writefile{toc}{\contentsline {subsection}{Unit Sphere}{1}{section*.1}}
\@writefile{toc}{\contentsline {subsection}{Continuity \& Convergence}{1}{section*.2}}
\@writefile{toc}{\contentsline {subsection}{Operations on Banach Spaces}{1}{section*.3}}
\@writefile{toc}{\contentsline {subsubsection}{Product of Banach Spaces}{1}{section*.4}}
\@writefile{toc}{\contentsline {subsubsection}{Intersection of Banach Spaces}{1}{section*.5}}
\@writefile{toc}{\contentsline {subsubsection}{Quotient of Banach Spaces}{1}{section*.6}}
\@writefile{toc}{\contentsline {section}{\numberline {3}Hilbert Spaces}{1}{section.3}}
\@writefile{toc}{\contentsline {subsection}{Projection Lemma}{1}{section*.7}}
\@writefile{toc}{\contentsline {subsection}{Orthonormal System \& Hilbertean Basis}{1}{section*.8}}
\@writefile{toc}{\contentsline {section}{\numberline {4}Fundamental Principles}{1}{section.4}}
\@writefile{toc}{\contentsline {subsection}{Banach Steinhaus Theorem}{1}{section*.9}}
\@writefile{toc}{\contentsline {subsection}{Open Mapping Theorem}{1}{section*.10}}
\@writefile{toc}{\contentsline {subsection}{Closed Graph Theorem}{1}{section*.11}}
\@writefile{toc}{\contentsline {subsection}{T\"{o}plitz Criterion}{2}{section*.12}}
\@writefile{toc}{\contentsline {subsection}{Unbounded Operators}{2}{section*.13}}
\@writefile{toc}{\contentsline {subsection}{Closable Operators}{2}{section*.14}}
\@writefile{toc}{\contentsline {section}{\numberline {5}Hahn-Banach Theorems}{2}{section.5}}
\@writefile{toc}{\contentsline {subsection}{Dual Spaces}{2}{section*.15}}
\@writefile{toc}{\contentsline {subsection}{Geometric Forms of Hahn-Banach}{2}{section*.16}}
\@writefile{toc}{\contentsline {section}{\numberline {6}Duality \& Convexity}{2}{section.6}}
\@writefile{toc}{\contentsline {subsection}{Duality of Hilbert Spaces}{2}{section*.17}}
\@writefile{toc}{\contentsline {subsection}{Duality for $L^p$-Spaces}{2}{section*.18}}
\@writefile{toc}{\contentsline {subsection}{Convexity}{2}{section*.19}}
\@writefile{toc}{\contentsline {section}{\numberline {7}Extremal Points}{2}{section.7}}
\@writefile{toc}{\contentsline {section}{\numberline {8}Weak \& Strong Topologies}{3}{section.8}}
\@writefile{toc}{\contentsline {subsection}{Weak Topology}{3}{section*.20}}
\@writefile{toc}{\contentsline {subsection}{Closure \& Convexity}{3}{section*.21}}
\@writefile{toc}{\contentsline {section}{\numberline {9}Reflexivity \& Separability}{3}{section.9}}
\@writefile{toc}{\contentsline {subsection}{Reflexivity}{3}{section*.22}}
\@writefile{toc}{\contentsline {subsection}{Separability}{3}{section*.23}}
\@writefile{toc}{\contentsline {subsection}{Application of Reflexivity \& Separability}{3}{section*.24}}
\@writefile{toc}{\contentsline {subsection}{Lower Semicontinuity}{3}{section*.25}}
\@writefile{toc}{\contentsline {section}{\numberline {10}Dual \& Compact Operators}{3}{section.10}}
\@writefile{toc}{\contentsline {subsection}{Dual Operators}{3}{section*.26}}
\@writefile{toc}{\contentsline {subsection}{Compact Operators}{3}{section*.27}}
\@writefile{toc}{\contentsline {subsection}{Adjunctions in Hilbert Spaces}{4}{section*.28}}
\@writefile{toc}{\contentsline {section}{\numberline {11}Spectral Theory}{4}{section.11}}
\@writefile{toc}{\contentsline {subsection}{Spectrum \& Resolvent}{4}{section*.29}}
\@writefile{toc}{\contentsline {subsection}{Structure of the Spectrum}{4}{section*.30}}
\@writefile{toc}{\contentsline {subsection}{Spectral Calculus}{4}{section*.31}}
\@writefile{toc}{\contentsline {subsection}{Spectral Theory in Hilbert Spaces}{4}{section*.32}}
\@writefile{toc}{\contentsline {subsection}{Spectral Theorem for Bounded Operators}{4}{section*.33}}
\newlabel{LastPage}{{}{4}{}{page.4}{}}
\xdef\lastpage@lastpage{4}
\xdef\lastpage@lastpageHy{4}
