\relax 
\providecommand\hyper@newdestlabel[2]{}
\providecommand\HyperFirstAtBeginDocument{\AtBeginDocument}
\HyperFirstAtBeginDocument{\ifx\hyper@anchor\@undefined
\global\let\oldcontentsline\contentsline
\gdef\contentsline#1#2#3#4{\oldcontentsline{#1}{#2}{#3}}
\global\let\oldnewlabel\newlabel
\gdef\newlabel#1#2{\newlabelxx{#1}#2}
\gdef\newlabelxx#1#2#3#4#5#6{\oldnewlabel{#1}{{#2}{#3}}}
\AtEndDocument{\ifx\hyper@anchor\@undefined
\let\contentsline\oldcontentsline
\let\newlabel\oldnewlabel
\fi}
\fi}
\global\let\hyper@last\relax 
\gdef\HyperFirstAtBeginDocument#1{#1}
\providecommand\HyField@AuxAddToFields[1]{}
\providecommand\HyField@AuxAddToCoFields[2]{}
\@writefile{toc}{\contentsline {section}{\numberline {1}Introduction}{1}{section.1}}
\@writefile{toc}{\contentsline {section}{\numberline {2}Boundary Value Problem}{1}{section.2}}
\newlabel{Equation: Boundary Value Problem (General)}{{{B}}{1}{Boundary Value Problem}{AMS.1}{}}
\@writefile{toc}{\contentsline {subsection}{Weak Solution}{1}{section*.2}}
\@writefile{toc}{\contentsline {subsection}{Weak Derivative}{1}{section*.3}}
\@writefile{toc}{\contentsline {section}{\numberline {3}Sobolev Spaces}{1}{section.3}}
\@writefile{toc}{\contentsline {subsection}{1 Dimensional Sobolev Space, $I \subseteq  {\mathbb  {R}} $}{1}{section*.4}}
\newlabel{Theorem: Weak derivative coincides with derivative I}{{3}{1}{}{section*.4}{}}
\newlabel{Theorem: Weak derivative coincides with derivative II}{{3}{1}{}{Item.2}{}}
\newlabel{Lemma: du Bois-Raymond}{{3}{1}{}{Item.2}{}}
\newlabel{Lemma: Weak Derivative and Pointwise Derivative}{{3}{1}{}{Item.2}{}}
\newlabel{Theorem: Dual Characterisation of 1D Sobolev Spaces}{{3}{1}{}{Item.2}{}}
\@writefile{toc}{\contentsline {subsection}{Extension Space}{1}{section*.5}}
\@writefile{toc}{\contentsline {subsection}{Approximation of 1D Sobolev Spaces}{2}{section*.6}}
\newlabel{Theorem: Approximation Theorem}{{3}{2}{}{section*.6}{}}
\newlabel{Theorem: Theorem 2 March 5}{{3}{2}{}{section*.6}{}}
\@writefile{toc}{\contentsline {subsubsection}{Dirichlet Problem}{2}{section*.7}}
\newlabel{Equation: Dirichlet Equation}{{{$*_D$}}{2}{Dirichlet Problem}{AMS.8}{}}
\@writefile{toc}{\contentsline {subsubsection}{Neumann Problem}{2}{section*.9}}
\newlabel{Equation: Neumann Equation}{{{$*_N$}}{2}{Neumann Problem}{AMS.10}{}}
\newlabel{Equation: Neumann Problem Weak}{{{$*_N^{weak}$}}{2}{}{AMS.11}{}}
\@writefile{toc}{\contentsline {subsubsection}{Variational Problem}{2}{section*.12}}
\@writefile{toc}{\contentsline {subsection}{Higher Dimensional Sobolev Spaces, $\Omega \subseteq  {\mathbb  {R}} ^n$}{2}{section*.14}}
\newlabel{Lemma: Equivalent Characterisation of W1p}{{3}{2}{}{Item.14}{}}
\@writefile{toc}{\contentsline {subsection}{Extension of Sobolev Functions}{3}{section*.16}}
\@writefile{toc}{\contentsline {subsection}{Traces of Sobolev Functions}{3}{section*.17}}
\newlabel{Lemma: Lemma 1, March 22}{{3}{3}{}{section*.17}{}}
\@writefile{toc}{\contentsline {subsection}{Sobolev Embeddings}{3}{section*.18}}
\@writefile{toc}{\contentsline {subsection}{Higher Sobolev Embeddings \& Weak Formulations}{4}{section*.19}}
\newlabel{Equation: Poisson Equation}{{{*}}{4}{Higher Sobolev Embeddings \& Weak Formulations}{AMS.20}{}}
\@writefile{toc}{\contentsline {subsubsection}{Gradient Growth of $C^{0,\alpha }$ Functions}{4}{section*.21}}
\@writefile{toc}{\contentsline {subsubsection}{Classic Differentiability}{4}{section*.22}}
\@writefile{toc}{\contentsline {section}{\numberline {4}Elliptic Regularity}{5}{section.4}}
\newlabel{Equation: Elliptic Problem Estimate}{{{*}}{5}{}{AMS.24}{}}
\@writefile{toc}{\contentsline {subsection}{Difference Quotients}{5}{section*.25}}
\@writefile{toc}{\contentsline {subsection}{Higher Elliptic Estimates}{5}{section*.26}}
\@writefile{toc}{\contentsline {subsection}{Elliptic Operators in Divergence Form}{5}{section*.27}}
\@writefile{toc}{\contentsline {subsection}{Boundary and Global Regularity}{5}{section*.28}}
\newlabel{Equation: H2 Estimate Extensions}{{{\$}}{5}{}{AMS.29}{}}
\@writefile{toc}{\contentsline {subsection}{Global Regularity for Weak Solutions of Elliptic PDE's}{5}{section*.30}}
\@writefile{toc}{\contentsline {subsection}{Spectral Theory for Laplace Operator}{6}{section*.31}}
\@writefile{toc}{\contentsline {section}{\numberline {5}Schauder Theory}{6}{section.5}}
\@writefile{toc}{\contentsline {subsection}{Existence Result for Elliptic Boundary Value Problems}{6}{section*.32}}
\newlabel{Problem: May 24}{{{*}}{6}{Existence Result for Elliptic Boundary Value Problems}{AMS.33}{}}
\@writefile{toc}{\contentsline {subsection}{Maximal Principle for Elliptic Operators}{7}{section*.34}}
\@writefile{toc}{\contentsline {subsection}{Strong Maximal Principle}{7}{section*.36}}
\newlabel{Theorem: Strong Maximal Principle}{{5}{7}{}{section*.36}{}}
\newlabel{Lemma: Hopf Lemma}{{5}{7}{}{section*.36}{}}
\newlabel{LastPage}{{}{7}{}{page.7}{}}
\xdef\lastpage@lastpage{7}
\xdef\lastpage@lastpageHy{7}
