\BOOKMARK [1][-]{section.1}{Regression}{}% 1
\BOOKMARK [2][-]{section*.1}{Linear Regression}{section.1}% 2
\BOOKMARK [2][-]{section*.2}{Least Squares Model}{section.1}% 3
\BOOKMARK [2][-]{section*.3}{Projection Matrix}{section.1}% 4
\BOOKMARK [1][-]{section.2}{KNN \046 CV}{}% 5
\BOOKMARK [2][-]{section*.4}{Double CV}{section.2}% 6
\BOOKMARK [1][-]{section.3}{Bootstrapping}{}% 7
\BOOKMARK [2][-]{section*.5}{Bootstrap CI}{section.3}% 8
\BOOKMARK [1][-]{section.4}{Hypothesis Testing}{}% 9
\BOOKMARK [2][-]{section*.9}{FDR \046 FWER}{section.4}% 10
\BOOKMARK [1][-]{section.5}{Ridge \046 LASSO}{}% 11
\BOOKMARK [1][-]{section.6}{Beyond Linearity}{}% 12
\BOOKMARK [2][-]{section*.16}{Local Regression}{section.6}% 13
\BOOKMARK [2][-]{section*.17}{GAM \046 Backfitting}{section.6}% 14
\BOOKMARK [2][-]{section*.19}{CART \046 RF}{section.6}% 15
