\relax 
\providecommand\hyper@newdestlabel[2]{}
\providecommand\HyperFirstAtBeginDocument{\AtBeginDocument}
\HyperFirstAtBeginDocument{\ifx\hyper@anchor\@undefined
\global\let\oldcontentsline\contentsline
\gdef\contentsline#1#2#3#4{\oldcontentsline{#1}{#2}{#3}}
\global\let\oldnewlabel\newlabel
\gdef\newlabel#1#2{\newlabelxx{#1}#2}
\gdef\newlabelxx#1#2#3#4#5#6{\oldnewlabel{#1}{{#2}{#3}}}
\AtEndDocument{\ifx\hyper@anchor\@undefined
\let\contentsline\oldcontentsline
\let\newlabel\oldnewlabel
\fi}
\fi}
\global\let\hyper@last\relax 
\gdef\HyperFirstAtBeginDocument#1{#1}
\providecommand\HyField@AuxAddToFields[1]{}
\providecommand\HyField@AuxAddToCoFields[2]{}
\@writefile{toc}{\contentsline {section}{\numberline {1}Regression}{1}{section.1}}
\@writefile{toc}{\contentsline {subsection}{Linear Regression}{1}{section*.1}}
\@writefile{toc}{\contentsline {subsection}{Least Squares Model}{1}{section*.2}}
\@writefile{toc}{\contentsline {subsection}{Projection Matrix}{1}{section*.3}}
\@writefile{toc}{\contentsline {section}{\numberline {2}KNN \& CV}{1}{section.2}}
\@writefile{toc}{\contentsline {subsection}{Double CV}{1}{section*.4}}
\@writefile{toc}{\contentsline {section}{\numberline {3}Bootstrapping}{1}{section.3}}
\@writefile{toc}{\contentsline {subsection}{Bootstrap CI}{1}{section*.5}}
\@writefile{toc}{\contentsline {section}{\numberline {4}Hypothesis Testing}{1}{section.4}}
\@writefile{toc}{\contentsline {paragraph}{Wilcoxon Rank Sum Test}{1}{section*.6}}
\@writefile{toc}{\contentsline {paragraph}{Wilcoxon Signed Rank Test}{2}{section*.7}}
\@writefile{toc}{\contentsline {paragraph}{Permutation Test}{2}{section*.8}}
\@writefile{toc}{\contentsline {subsection}{FDR \& FWER}{2}{section*.9}}
\@writefile{toc}{\contentsline {paragraph}{Westfall-Young procedure}{2}{section*.10}}
\@writefile{toc}{\contentsline {section}{\numberline {5}Ridge \& LASSO}{2}{section.5}}
\@writefile{toc}{\contentsline {paragraph}{Information Criteria}{2}{section*.11}}
\@writefile{toc}{\contentsline {paragraph}{Ridge regression}{2}{section*.12}}
\@writefile{toc}{\contentsline {paragraph}{LASSO}{2}{section*.13}}
\@writefile{toc}{\contentsline {paragraph}{Flexibility/Variability}{2}{section*.14}}
\@writefile{toc}{\contentsline {section}{\numberline {6}Beyond Linearity}{2}{section.6}}
\@writefile{toc}{\contentsline {paragraph}{Spline}{2}{section*.15}}
\@writefile{toc}{\contentsline {subsection}{Local Regression}{2}{section*.16}}
\@writefile{toc}{\contentsline {subsection}{GAM \& Backfitting}{2}{section*.17}}
\@writefile{toc}{\contentsline {paragraph}{Basis}{2}{section*.18}}
\@writefile{toc}{\contentsline {subsection}{CART \& RF}{2}{section*.19}}
\@writefile{toc}{\contentsline {paragraph}{Bagging}{2}{section*.20}}
\newlabel{LastPage}{{}{2}{}{page.2}{}}
\xdef\lastpage@lastpage{2}
\xdef\lastpage@lastpageHy{2}
