\relax 
\providecommand\hyper@newdestlabel[2]{}
\providecommand\HyperFirstAtBeginDocument{\AtBeginDocument}
\HyperFirstAtBeginDocument{\ifx\hyper@anchor\@undefined
\global\let\oldcontentsline\contentsline
\gdef\contentsline#1#2#3#4{\oldcontentsline{#1}{#2}{#3}}
\global\let\oldnewlabel\newlabel
\gdef\newlabel#1#2{\newlabelxx{#1}#2}
\gdef\newlabelxx#1#2#3#4#5#6{\oldnewlabel{#1}{{#2}{#3}}}
\AtEndDocument{\ifx\hyper@anchor\@undefined
\let\contentsline\oldcontentsline
\let\newlabel\oldnewlabel
\fi}
\fi}
\global\let\hyper@last\relax 
\gdef\HyperFirstAtBeginDocument#1{#1}
\providecommand\HyField@AuxAddToFields[1]{}
\providecommand\HyField@AuxAddToCoFields[2]{}
\@writefile{toc}{\contentsline {section}{\numberline {1}Overview}{1}{section.1}}
\newmarginnote{note.4.1}{{4}{4736286sp}}
\@writefile{toc}{\contentsline {subsection}{\numberline {1.1}Heuristics}{1}{subsection.1.1}}
\@writefile{toc}{\contentsline {subsection}{\numberline {1.2}Uniqueness}{2}{subsection.1.2}}
\@writefile{toc}{\contentsline {subsection}{\numberline {1.3}First Derivative Test}{2}{subsection.1.3}}
\@writefile{toc}{\contentsline {subsection}{\numberline {1.4}Boundary Problem \& Variational Problem}{2}{subsection.1.4}}
\newlabel{Equation: Variation Problem}{{{\#}}{2}{Boundary Problem \& Variational Problem}{AMS.3}{}}
\newlabel{Equation: Boundary Problem}{{{*}}{2}{Boundary Problem \& Variational Problem}{AMS.4}{}}
\@writefile{toc}{\contentsline {subsection}{\numberline {1.5}Existence \& Regularity}{3}{subsection.1.5}}
\newlabel{Equation: Variational Problem p}{{{$\#_p$}}{3}{}{AMS.5}{}}
\@writefile{toc}{\contentsline {section}{\numberline {2}Boundary Value Problem}{3}{section.2}}
\newmarginnote{note.6.1}{{6}{4736286sp}}
\newlabel{Equation: Boundary Value Problem (General)}{{2}{3}{Boundary Value Problem}{section.2}{}}
\newlabel{Equation: Boundary Value Problem (Special)}{{2}{3}{Boundary Value Problem}{section.2}{}}
\@writefile{toc}{\contentsline {subsection}{\numberline {2.1}Weak Solutions of Dirichlet Equations}{4}{subsection.2.1}}
\@writefile{toc}{\contentsline {subsection}{\numberline {2.2}First Notion of Weak Solution (Riesz)}{4}{subsection.2.2}}
\@writefile{toc}{\contentsline {subsection}{\numberline {2.3}Second Notion of Weak Solution (Closed Range Theorem)}{6}{subsection.2.3}}
\@writefile{toc}{\contentsline {subsection}{\numberline {2.4}Distributional Derivatives}{6}{subsection.2.4}}
\newmarginnote{note.9.1}{{9}{4736286sp}}
\@writefile{toc}{\contentsline {subsection}{\numberline {2.5}Basic Functional Properties}{9}{subsection.2.5}}
\newmarginnote{note.12.1}{{12}{4736286sp}}
\newlabel{Theorem: Weak derivative coincides with derivative I}{{2.13}{10}{}{thm.2.13}{}}
\newlabel{Theorem: Weak derivative coincides with derivative II}{{2.14}{10}{}{thm.2.14}{}}
\newlabel{Lemma: du Bois-Reymond}{{2.15}{10}{}{thm.2.15}{}}
\newlabel{Lemma: Weak Derivative and Pointwise Derivative}{{2.16}{10}{}{thm.2.16}{}}
\newlabel{Theorem: Dual Characterisation of 1D Sobolev Spaces}{{2.17}{11}{}{thm.2.17}{}}
\@writefile{toc}{\contentsline {subsection}{\numberline {2.6}Extension Space}{13}{subsection.2.6}}
\@writefile{toc}{\contentsline {subsection}{\numberline {2.7}Approximation and 1-Dimensional Sobolev Spaces}{14}{subsection.2.7}}
\newmarginnote{note.16.1}{{17}{4736286sp}}
\newlabel{Theorem: Approximation Theorem}{{2.19}{14}{}{thm.2.19}{}}
\newlabel{Theorem: Theorem 2 March 5}{{2.20}{14}{}{thm.2.20}{}}
\@writefile{toc}{\contentsline {subsection}{\numberline {2.8}ODE's With Dirichtlet/Neumann Boundary Conditions}{17}{subsection.2.8}}
\newmarginnote{note.19.1}{{20}{4736286sp}}
\@writefile{toc}{\contentsline {subsubsection}{\numberline {2.8.1}Dirichlet Problem}{17}{subsubsection.2.8.1}}
\newlabel{Equation: Dirichlet Equation}{{{$*_D$}}{17}{Dirichlet Problem}{AMS.6}{}}
\@writefile{toc}{\contentsline {subsubsection}{\numberline {2.8.2}Neumann Problem}{17}{subsubsection.2.8.2}}
\newlabel{Equation: Neumann Equation}{{{$*_N$}}{17}{Neumann Problem}{AMS.7}{}}
\newlabel{Equation: Neumann Problem Weak}{{{$*_N^{weak}$}}{18}{}{AMS.8}{}}
\@writefile{toc}{\contentsline {subsubsection}{\numberline {2.8.3}Variational Problem}{18}{subsubsection.2.8.3}}
\@writefile{toc}{\contentsline {subsubsection}{\numberline {2.8.4}Neumann Problem vs. Variational Problem}{19}{subsubsection.2.8.4}}
\newlabel{Equation: Neumann Equation epsilon}{{{$*_{N,\varepsilon }$}}{19}{Neumann Problem vs. Variational Problem}{AMS.10}{}}
\@writefile{toc}{\contentsline {section}{\numberline {3}Sobolev Spaces for $\Omega \subseteq  {\mathbb  {R}} ^n$}{20}{section.3}}
\newmarginnote{note.23.1}{{23}{4736286sp}}
\@writefile{toc}{\contentsline {subsection}{\numberline {3.1}Approximation of Sobolev Functions}{22}{subsection.3.1}}
\@writefile{toc}{\contentsline {subsection}{\numberline {3.2}Calculus in Sobolev Spaces}{23}{subsection.3.2}}
\newmarginnote{note.25.1}{{26}{4736286sp}}
\newlabel{Lemma: Equivalent Characterisation of W1p}{{3.7}{23}{}{thm.3.7}{}}
\newlabel{Theorem: Thm A}{{3.9}{25}{}{thm.3.9}{}}
\newlabel{Theorem: Thm B}{{3.10}{25}{}{thm.3.10}{}}
\newlabel{Theorem: Thm C, Chain rule}{{3.11}{26}{}{thm.3.11}{}}
\newlabel{Theorem: Thm D}{{3.12}{26}{}{thm.3.12}{}}
\@writefile{toc}{\contentsline {subsection}{\numberline {3.3}Extension of $W^{1,p}$ Functions}{27}{subsection.3.3}}
\@writefile{toc}{\contentsline {subsubsection}{\numberline {3.3.1}Local Extension}{27}{subsubsection.3.3.1}}
\newmarginnote{note.29.1}{{30}{4736286sp}}
\@writefile{toc}{\contentsline {subsubsection}{\numberline {3.3.2}Global Extension}{28}{subsubsection.3.3.2}}
\@writefile{toc}{\contentsline {subsection}{\numberline {3.4}Traces of Sobolev Functions}{30}{subsection.3.4}}
\newmarginnote{note.33.1}{{33}{4736286sp}}
\newlabel{Theorem: Trace of Sobolev Functions}{{3.19}{30}{}{thm.3.19}{}}
\newlabel{Lemma: Lemma 1, March 22}{{3.20}{30}{}{thm.3.20}{}}
\@writefile{toc}{\contentsline {subsection}{\numberline {3.5}Sobolev Embedding Theorems}{33}{subsection.3.5}}
\@writefile{toc}{\contentsline {subsection}{\numberline {3.6}Sobolev Inequality}{33}{subsection.3.6}}
\newmarginnote{note.36.1}{{36}{4736286sp}}
\newlabel{Theorem: Theorem 1, March 29}{{3.25}{36}{}{thm.3.25}{}}
\@writefile{toc}{\contentsline {subsubsection}{\numberline {3.6.1}Sobolev Embedding Theorem, $p \le n$}{36}{subsubsection.3.6.1}}
\newmarginnote{note.39.1}{{39}{4736286sp}}
\newlabel{Theorem: Theorem 2, March 29}{{3.26}{37}{}{thm.3.26}{}}
\newlabel{Theorem: Holder Spaces are Banach Spaces}{{3.28}{38}{}{thm.3.28}{}}
\newlabel{Theorem: Compact Embedding}{{3.29}{38}{}{thm.3.29}{}}
\@writefile{toc}{\contentsline {subsubsection}{\numberline {3.6.2}Sobolev Embedding Theorem, $p > n$}{39}{subsubsection.3.6.2}}
\newmarginnote{note.42.1}{{42}{4736286sp}}
\newlabel{Proposition: Prop A April 9, Campanoto}{{3.34}{40}{}{thm.3.34}{}}
\newlabel{Proposition: Prop B April 9, Poincare-Wirtinger}{{3.35}{40}{}{thm.3.35}{}}
\newlabel{Theorem: Theorem 1 April 9}{{3.36}{40}{}{thm.3.36}{}}
\newlabel{Theorem: Sobolev Embedding Theorem}{{3.38}{41}{}{thm.3.38}{}}
\@writefile{toc}{\contentsline {subsection}{\numberline {3.7}Higher Sobolev Embeddings \& Weak Solutions}{43}{subsection.3.7}}
\@writefile{toc}{\contentsline {subsubsection}{\numberline {3.7.1}Regularity \& Weak Solutions}{43}{subsubsection.3.7.1}}
\newmarginnote{note.46.1}{{46}{4736286sp}}
\@writefile{toc}{\contentsline {subsubsection}{\numberline {3.7.2}Weak Formulation}{43}{subsubsection.3.7.2}}
\newlabel{Equation: Poisson Equation}{{{*}}{43}{Weak Formulation}{AMS.15}{}}
\@writefile{toc}{\contentsline {subsubsection}{\numberline {3.7.3}Gradient Growth of $C^{0,\alpha }$ Functions}{44}{subsubsection.3.7.3}}
\@writefile{toc}{\contentsline {subsubsection}{\numberline {3.7.4}Classic Differentiability}{45}{subsubsection.3.7.4}}
\@writefile{toc}{\contentsline {subsection}{\numberline {3.8}Summary}{45}{subsection.3.8}}
\@writefile{toc}{\contentsline {section}{\numberline {4}Elliptic Regularity}{46}{section.4}}
\@writefile{toc}{\contentsline {subsection}{\numberline {4.1}Interior Regularity for Elliptic Problems}{46}{subsection.4.1}}
\newmarginnote{note.49.1}{{49}{4736286sp}}
\newlabel{Theorem: Elliptic Problem Solution}{{4.1}{46}{}{thm.4.1}{}}
\newlabel{Equation: Elliptic Problem Estimate}{{{*}}{46}{}{AMS.16}{}}
\@writefile{toc}{\contentsline {subsection}{\numberline {4.2}Preliminary}{47}{subsection.4.2}}
\@writefile{toc}{\contentsline {subsection}{\numberline {4.3}A Priori Estimates}{47}{subsection.4.3}}
\newlabel{Equation: H2 Estimate Of Elliptic Problems}{{{$E_w$}}{48}{A Priori Estimates}{AMS.17}{}}
\newlabel{Equation: Elliptic Regularity H2 Estimate 1}{{{E}}{49}{A Priori Estimates}{AMS.18}{}}
\newlabel{Equation: Elliptic Regularity H2 Estimate 2}{{{$E_h$}}{49}{A Priori Estimates}{AMS.19}{}}
\@writefile{toc}{\contentsline {subsection}{\numberline {4.4}Higher Elliptic Estimates}{50}{subsection.4.4}}
\newmarginnote{note.53.1}{{53}{4736286sp}}
\@writefile{toc}{\contentsline {subsection}{\numberline {4.5}Elliptic Operators in Divergence Form}{52}{subsection.4.5}}
\newlabel{Equation: Elliptic regularity weak form}{{{w}}{53}{Elliptic Operators in Divergence Form}{AMS.21}{}}
\@writefile{toc}{\contentsline {subsection}{\numberline {4.6}Boundary and Global Regularity}{53}{subsection.4.6}}
\newmarginnote{note.56.1}{{56}{4736286sp}}
\newlabel{Equation: H2 Estimate Extensions}{{{\$}}{54}{}{AMS.22}{}}
\newlabel{Lemma: Equivalence of Solutions}{{4.9}{56}{}{thm.4.9}{}}
\@writefile{toc}{\contentsline {subsection}{\numberline {4.7}Global Regularity for Weak Solutions of Elliptic PDE's}{57}{subsection.4.7}}
\newmarginnote{note.60.1}{{60}{4736286sp}}
\newlabel{Theorem: Global Estimate 9.1.2}{{4.11}{59}{}{thm.4.11}{}}
\@writefile{toc}{\contentsline {subsection}{\numberline {4.8}$H^2$-Estimates and Higher}{59}{subsection.4.8}}
\@writefile{toc}{\contentsline {subsection}{\numberline {4.9}Spectral Theory for Laplace Operator}{60}{subsection.4.9}}
\newmarginnote{note.63.1}{{63}{4736286sp}}
\newlabel{Lemma: Lemma 1, April 30}{{4.12}{61}{}{thm.4.12}{}}
\newlabel{Lemma: Lemma 2, April 30}{{4.13}{61}{}{thm.4.13}{}}
\@writefile{toc}{\contentsline {section}{\numberline {5}Schauder Theory}{64}{section.5}}
\newmarginnote{note.66.1}{{67}{4736286sp}}
\@writefile{toc}{\contentsline {subsection}{\numberline {5.1}How to proceed?}{64}{subsection.5.1}}
\newlabel{Lemma: Lemma 1, May 3}{{5.1}{64}{}{thm.5.1}{}}
\@writefile{toc}{\contentsline {subsection}{\numberline {5.2}General Case}{65}{subsection.5.2}}
\newlabel{Lemma: Lemma 2, May 3}{{5.2}{66}{}{thm.5.2}{}}
\newlabel{Lemma: Lemma 3, May 3}{{5.3}{66}{}{thm.5.3}{}}
\newmarginnote{note.69.1}{{69}{4736286sp}}
\@writefile{toc}{\contentsline {subsection}{\numberline {5.3}Schauder Estimates Part I - Local Schauder Estimate}{70}{subsection.5.3}}
\newmarginnote{note.72.1}{{73}{4736286sp}}
\newmarginnote{note.76.1}{{76}{9573443sp}}
\@writefile{toc}{\contentsline {subsection}{\numberline {5.4}Schauder Estimates Part II - Global Schauder Estimate}{74}{subsection.5.4}}
\@writefile{toc}{\contentsline {subsection}{\numberline {5.5}Existence Result for Elliptic Boundary Value Problems}{76}{subsection.5.5}}
\newmarginnote{note.78.1}{{79}{4736286sp}}
\newlabel{Problem: May 24}{{{*}}{76}{Existence Result for Elliptic Boundary Value Problems}{AMS.25}{}}
\newlabel{Theorem: Theorem A, May 24}{{5.13}{76}{}{thm.5.13}{}}
\newlabel{Lemma: Lemma 1, May 24}{{5.14}{76}{}{thm.5.14}{}}
\newlabel{Lemma: Lemma 2, May 24}{{5.15}{77}{}{thm.5.15}{}}
\newlabel{Theorem: Theorem B, May 24}{{5.16}{77}{}{thm.5.16}{}}
\@writefile{toc}{\contentsline {subsection}{\numberline {5.6}Maximal Principle for Elliptic Operators}{79}{subsection.5.6}}
\newmarginnote{note.81.1}{{82}{4736286sp}}
\newlabel{Theorem: Weak Maximal Principle}{{5.17}{79}{}{thm.5.17}{}}
\@writefile{toc}{\contentsline {subsubsection}{\numberline {5.6.1}Inhomogeneous Case}{80}{subsubsection.5.6.1}}
\@writefile{toc}{\contentsline {subsection}{\numberline {5.7}Strong Maximal Principle}{82}{subsection.5.7}}
\newmarginnote{note.84.1}{{85}{4736286sp}}
\newlabel{Theorem: Strong Maximal Principle}{{5.20}{82}{}{thm.5.20}{}}
\newlabel{Lemma: Hopf Lemma}{{5.21}{82}{}{thm.5.21}{}}
\@writefile{toc}{\contentsline {subsection}{\numberline {5.8}Method of Sub-Super Solution}{84}{subsection.5.8}}
\newlabel{Equation: Sub Super Solution Equation}{{{*}}{84}{Method of Sub-Super Solution}{AMS.27}{}}
\@writefile{toc}{\contentsline {section}{\numberline {6}Tutorial}{84}{section.6}}
\@writefile{toc}{\contentsline {subsection}{\numberline {6.1}February $19^{th}$, 2018}{84}{subsection.6.1}}
\@writefile{toc}{\contentsline {paragraph}{Problem 1 (Weak Topology)}{84}{section*.28}}
\@writefile{toc}{\contentsline {paragraph}{Solution:}{85}{section*.29}}
\@writefile{toc}{\contentsline {paragraph}{Question 2 (Direct Method)}{85}{section*.30}}
\@writefile{toc}{\contentsline {paragraph}{Solution:}{85}{section*.31}}
\@writefile{toc}{\contentsline {paragraph}{Problem 3 (Adjoint Operator \& Spectral Theorem)}{85}{section*.32}}
\@writefile{toc}{\contentsline {paragraph}{Solution:}{85}{section*.33}}
\@writefile{toc}{\contentsline {subsection}{\numberline {6.2}February $26^{th}$, 2018}{86}{subsection.6.2}}
\@writefile{toc}{\contentsline {subsection}{\numberline {6.3}March $5^{th}$, 2018}{87}{subsection.6.3}}
\@writefile{toc}{\contentsline {subsection}{\numberline {6.4}March $12^{th}$, 2018}{88}{subsection.6.4}}
\@writefile{toc}{\contentsline {subsection}{\numberline {6.5}March $19^{th}$, 2018}{89}{subsection.6.5}}
\@writefile{toc}{\contentsline {subsection}{\numberline {6.6}March $26^{th}$, 2018}{91}{subsection.6.6}}
\@writefile{toc}{\contentsline {subsection}{\numberline {6.7}April $9^{th}$, 2018}{91}{subsection.6.7}}
\@writefile{toc}{\contentsline {subsection}{\numberline {6.8}April $16^{th}$, 2018}{92}{subsection.6.8}}
\@writefile{toc}{\contentsline {subsection}{\numberline {6.9}April $23^{rd}$, 2018}{94}{subsection.6.9}}
\@writefile{toc}{\contentsline {subsection}{\numberline {6.10}April $30^{th}$, 2018}{94}{subsection.6.10}}
\@writefile{toc}{\contentsline {subsection}{\numberline {6.11}May $7^{th}$, 2018}{96}{subsection.6.11}}
\@writefile{toc}{\contentsline {subsection}{\numberline {6.12}May $14^{th}$, 2018}{97}{subsection.6.12}}
\@writefile{toc}{\contentsline {subsection}{\numberline {6.13}May $28^{th}$, 2018}{99}{subsection.6.13}}
\newlabel{LastPage}{{}{100}{}{page.100}{}}
\xdef\lastpage@lastpage{100}
\xdef\lastpage@lastpageHy{100}
