\relax 
\providecommand\hyper@newdestlabel[2]{}
\providecommand\HyperFirstAtBeginDocument{\AtBeginDocument}
\HyperFirstAtBeginDocument{\ifx\hyper@anchor\@undefined
\global\let\oldcontentsline\contentsline
\gdef\contentsline#1#2#3#4{\oldcontentsline{#1}{#2}{#3}}
\global\let\oldnewlabel\newlabel
\gdef\newlabel#1#2{\newlabelxx{#1}#2}
\gdef\newlabelxx#1#2#3#4#5#6{\oldnewlabel{#1}{{#2}{#3}}}
\AtEndDocument{\ifx\hyper@anchor\@undefined
\let\contentsline\oldcontentsline
\let\newlabel\oldnewlabel
\fi}
\fi}
\global\let\hyper@last\relax 
\gdef\HyperFirstAtBeginDocument#1{#1}
\providecommand\HyField@AuxAddToFields[1]{}
\providecommand\HyField@AuxAddToCoFields[2]{}
\@writefile{toc}{\contentsline {section}{\numberline {1}Bachman-Landau Notations/Asymptotic Notations}{1}{section.1}}
\@writefile{toc}{\contentsline {section}{\numberline {2}Simple Analytical Bounds}{1}{section.2}}
\@writefile{toc}{\contentsline {section}{\numberline {3}Concentration Inequalitites}{2}{section.3}}
\@writefile{toc}{\contentsline {section}{\numberline {4}Conjunctive Normal Form/Disjunctive Normal Form}{3}{section.4}}
\@writefile{toc}{\contentsline {section}{\numberline {5}Main Ideas}{3}{section.5}}
\@writefile{toc}{\contentsline {subsection}{\numberline {5.1}Minimum Set Cover}{3}{subsection.5.1}}
\@writefile{toc}{\contentsline {subsection}{\numberline {5.2}Knapsack}{3}{subsection.5.2}}
\@writefile{toc}{\contentsline {subsection}{\numberline {5.3}Bin Packing}{3}{subsection.5.3}}
\@writefile{toc}{\contentsline {subsection}{\numberline {5.4}Minimum Makespan Scheduling/Load Balancing}{4}{subsection.5.4}}
\@writefile{toc}{\contentsline {subsection}{\numberline {5.5}FPRAS}{4}{subsection.5.5}}
\@writefile{toc}{\contentsline {subsection}{\numberline {5.6}Rounding Integer Programming}{4}{subsection.5.6}}
\@writefile{toc}{\contentsline {subsection}{\numberline {5.7}Probabilistic Tree Embedding}{4}{subsection.5.7}}
\@writefile{toc}{\contentsline {subsection}{\numberline {5.8}Counting Majority Elements}{4}{subsection.5.8}}
\@writefile{toc}{\contentsline {subsection}{\numberline {5.9}Streaming Algorithms}{4}{subsection.5.9}}
\@writefile{toc}{\contentsline {subsection}{\numberline {5.10}Preserving Distance}{5}{subsection.5.10}}
\@writefile{toc}{\contentsline {subsection}{\numberline {5.11}Preserving Cuts}{5}{subsection.5.11}}
\@writefile{toc}{\contentsline {subsection}{\numberline {5.12}Online Algorithms}{5}{subsection.5.12}}
\newlabel{LastPage}{{}{6}{}{page.6}{}}
\xdef\lastpage@lastpage{6}
\xdef\lastpage@lastpageHy{6}
