\contentsline {part}{I\hspace {1em}Approximation Algorithms}{1}{part.1}
\contentsline {section}{\numberline {1}Greedy Algorithm}{1}{section.1}
\contentsline {subsection}{\numberline {1.1}Special Case 1: $\Delta $ is small}{2}{subsection.1.1}
\contentsline {subsection}{\numberline {1.2}Special Case 2: $f$ is small}{2}{subsection.1.2}
\contentsline {section}{\numberline {2}Polynomial Time Approximation Schemes (PTAS)}{2}{section.2}
\contentsline {subsection}{\numberline {2.1}Approximation Schemes}{2}{subsection.2.1}
\contentsline {subsection}{\numberline {2.2}Knapsack}{3}{subsection.2.2}
\contentsline {subsection}{\numberline {2.3}Bin Packing}{3}{subsection.2.3}
\contentsline {section}{\numberline {3}Fully Polynomial Time Approximation Scheme (FPTAS)}{5}{section.3}
\contentsline {subsection}{\numberline {3.1}Minimum Makespan Scheduling}{5}{subsection.3.1}
\contentsline {section}{\numberline {4}Fully Polynomial Randomized Algorithms (FPRAS)}{6}{section.4}
\contentsline {subsection}{\numberline {4.1}Disjunctive Normal Form (DNF) Counting}{6}{subsection.4.1}
\contentsline {subsection}{\numberline {4.2}Sampling Approach}{6}{subsection.4.2}
\contentsline {subsection}{\numberline {4.3}Counting Proper Colourings}{7}{subsection.4.3}
\contentsline {section}{\numberline {5}Approximation Algorithm via Rounding Linear Programs}{8}{section.5}
\contentsline {subsection}{\numberline {5.1}Set Cover Problem}{8}{subsection.5.1}
\contentsline {subsection}{\numberline {5.2}Multi-Commodity Routing}{9}{subsection.5.2}
\contentsline {section}{\numberline {6}Probabilistic Tree Embedding}{9}{section.6}
\contentsline {subsection}{\numberline {6.1}Fakchroenphol, Rao, Talwar (FRT)}{10}{subsection.6.1}
\contentsline {subsection}{\numberline {6.2}Ball Carving}{10}{subsection.6.2}
\contentsline {subsection}{\numberline {6.3}Application - Buy at Bulk Network Design}{10}{subsection.6.3}
\contentsline {part}{II\hspace {1em}Streaming \& Sketching Algorithms}{11}{part.2}
\contentsline {section}{\numberline {7}Basic Settings}{11}{section.7}
\contentsline {section}{\numberline {8}Method of Moments}{12}{section.8}
\contentsline {subsection}{\numberline {8.1}First Moment}{12}{subsection.8.1}
\contentsline {subsection}{\numberline {8.2}Zeroth Moment}{13}{subsection.8.2}
\contentsline {subsection}{\numberline {8.3}Alon-Matias-Szegedy, 1996}{14}{subsection.8.3}
\contentsline {section}{\numberline {9}Graph Problems}{15}{section.9}
\contentsline {subsection}{\numberline {9.1}Coordinator Model}{15}{subsection.9.1}
\contentsline {subsection}{\numberline {9.2}Bor$\mathaccentV {mathring}017{\text {u}}$vka's Algorithm (1926)}{16}{subsection.9.2}
\contentsline {part}{III\hspace {1em}Graph Sparsification}{16}{part.3}
\contentsline {section}{\numberline {10}Preserving Distances}{16}{section.10}
\contentsline {subsection}{\numberline {10.1}Multiplicative Spanners}{17}{subsection.10.1}
\contentsline {subsection}{\numberline {10.2}Additive Spanners}{17}{subsection.10.2}
\contentsline {subsubsection}{\numberline {10.2.1}2-additive Spanner, $\mathaccentV {tilde}07E{O}(n^{\frac {3}{2}})$ edges}{17}{subsubsection.10.2.1}
\contentsline {subsubsection}{\numberline {10.2.2}4-additive Spanner, $\mathaccentV {tilde}07E{O}(n^{\frac {7}{5}})$ edges}{18}{subsubsection.10.2.2}
\contentsline {subsection}{\numberline {10.3}Preserving Cuts}{19}{subsection.10.3}
\contentsline {subsubsection}{\numberline {10.3.1}Uniform Edge Sampling}{19}{subsubsection.10.3.1}
\contentsline {subsubsection}{\numberline {10.3.2}Strong Connectivity}{20}{subsubsection.10.3.2}
\contentsline {subsubsection}{\numberline {10.3.3}Sparsification Algorithm}{20}{subsubsection.10.3.3}
\contentsline {subsection}{\numberline {10.4}Weighted Graphs}{20}{subsection.10.4}
\contentsline {part}{IV\hspace {1em}Online Algorithms \& Competitive Analysis}{20}{part.4}
\contentsline {section}{\numberline {11}Online Algorithms}{21}{section.11}
\contentsline {subsection}{\numberline {11.1}Ski Rental}{21}{subsection.11.1}
\contentsline {subsection}{\numberline {11.2}Linear Search}{21}{subsection.11.2}
\contentsline {section}{\numberline {12}Paging}{22}{section.12}
\contentsline {subsection}{\numberline {12.1}Randomized Algorithm for Paging}{23}{subsection.12.1}
\contentsline {subsection}{\numberline {12.2}Yao's Minimax Principle}{23}{subsection.12.2}
\contentsline {section}{\numberline {13}$K$-Server Problem}{24}{section.13}
\contentsline {section}{\numberline {14}Multiplicative Weight Updates Method (MWU)}{24}{section.14}
\contentsline {subsection}{\numberline {14.1}Randomized MWU}{25}{subsection.14.1}
\contentsline {subsection}{\numberline {14.2}Generalisation}{26}{subsection.14.2}
