\relax 
\providecommand\hyper@newdestlabel[2]{}
\providecommand\HyperFirstAtBeginDocument{\AtBeginDocument}
\HyperFirstAtBeginDocument{\ifx\hyper@anchor\@undefined
\global\let\oldcontentsline\contentsline
\gdef\contentsline#1#2#3#4{\oldcontentsline{#1}{#2}{#3}}
\global\let\oldnewlabel\newlabel
\gdef\newlabel#1#2{\newlabelxx{#1}#2}
\gdef\newlabelxx#1#2#3#4#5#6{\oldnewlabel{#1}{{#2}{#3}}}
\AtEndDocument{\ifx\hyper@anchor\@undefined
\let\contentsline\oldcontentsline
\let\newlabel\oldnewlabel
\fi}
\fi}
\global\let\hyper@last\relax 
\gdef\HyperFirstAtBeginDocument#1{#1}
\providecommand\HyField@AuxAddToFields[1]{}
\providecommand\HyField@AuxAddToCoFields[2]{}
\@writefile{toc}{\contentsline {section}{\numberline {1}Linear Regression}{1}{section.1}}
\@writefile{toc}{\contentsline {subsection}{\numberline {1.1}Simple Linear Regression}{1}{subsection.1.1}}
\newmarginnote{note.3.1}{{3}{4736286sp}}
\@writefile{toc}{\contentsline {subsection}{\numberline {1.2}Parameter Estimation}{1}{subsection.1.2}}
\@writefile{toc}{\contentsline {subsection}{\numberline {1.3}Multiple Linear Regression}{1}{subsection.1.3}}
\newmarginnote{note.3.2}{{3}{4736286sp}}
\@writefile{toc}{\contentsline {subsection}{\numberline {1.4}Summary}{2}{subsection.1.4}}
\newmarginnote{note.3.3}{{4}{4736286sp}}
\@writefile{toc}{\contentsline {section}{\numberline {2}Techniques in Regressions}{2}{section.2}}
\@writefile{toc}{\contentsline {subsection}{\numberline {2.1}Variances \& R Square Value}{2}{subsection.2.1}}
\@writefile{toc}{\contentsline {subsection}{\numberline {2.2}Categorical Variables}{3}{subsection.2.2}}
\newmarginnote{note.5.1}{{5}{4736286sp}}
\newmarginnote{note.5.2}{{5}{4736286sp}}
\newmarginnote{note.6.1}{{7}{4736286sp}}
\@writefile{toc}{\contentsline {section}{\numberline {3}Cross Validations}{6}{section.3}}
\@writefile{toc}{\contentsline {subsection}{\numberline {3.1}$K$-Nearest Neighbours (KNN)}{6}{subsection.3.1}}
\newmarginnote{note.8.1}{{8}{4736286sp}}
\newmarginnote{note.9.1}{{9}{4736286sp}}
\@writefile{toc}{\contentsline {section}{\numberline {4}Bootstrapping}{8}{section.4}}
\newmarginnote{note.9.2}{{10}{4736286sp}}
\newmarginnote{note.9.3}{{10}{4736286sp}}
\newmarginnote{note.10.1}{{10}{4736286sp}}
\newlabel{LastPage}{{}{8}{}{page.8}{}}
\xdef\lastpage@lastpage{8}
\xdef\lastpage@lastpageHy{8}
