\relax 
\providecommand\hyper@newdestlabel[2]{}
\providecommand\HyperFirstAtBeginDocument{\AtBeginDocument}
\HyperFirstAtBeginDocument{\ifx\hyper@anchor\@undefined
\global\let\oldcontentsline\contentsline
\gdef\contentsline#1#2#3#4{\oldcontentsline{#1}{#2}{#3}}
\global\let\oldnewlabel\newlabel
\gdef\newlabel#1#2{\newlabelxx{#1}#2}
\gdef\newlabelxx#1#2#3#4#5#6{\oldnewlabel{#1}{{#2}{#3}}}
\AtEndDocument{\ifx\hyper@anchor\@undefined
\let\contentsline\oldcontentsline
\let\newlabel\oldnewlabel
\fi}
\fi}
\global\let\hyper@last\relax 
\gdef\HyperFirstAtBeginDocument#1{#1}
\providecommand\HyField@AuxAddToFields[1]{}
\providecommand\HyField@AuxAddToCoFields[2]{}
\@writefile{toc}{\contentsline {part}{I\hspace  {1em}General Topology}{1}{part.1}}
\@writefile{toc}{\contentsline {section}{\numberline {1}Set Theory \& Logic}{1}{section.1}}
\@writefile{toc}{\contentsline {section}{\numberline {2}Metric Spaces \& Normed Linear Spaces}{3}{section.2}}
\@writefile{toc}{\contentsline {subsection}{\numberline {2.1}Metric Spaces}{3}{subsection.2.1}}
\@writefile{toc}{\contentsline {subsection}{\numberline {2.2}Normed Linear Spaces}{4}{subsection.2.2}}
\@writefile{toc}{\contentsline {section}{\numberline {3}Topological Spaces}{4}{section.3}}
\@writefile{toc}{\contentsline {section}{\numberline {4}Topological Bases}{7}{section.4}}
\@writefile{toc}{\contentsline {subsection}{\numberline {4.1}Subbases}{9}{subsection.4.1}}
\@writefile{toc}{\contentsline {subsection}{\numberline {4.2}Exercises}{9}{subsection.4.2}}
\@writefile{toc}{\contentsline {subsection}{\numberline {4.3}Order Topology}{10}{subsection.4.3}}
\@writefile{toc}{\contentsline {subsection}{\numberline {4.4}Subspace Topology}{11}{subsection.4.4}}
\@writefile{toc}{\contentsline {section}{\numberline {5}Closed Sets and Limit Points}{11}{section.5}}
\@writefile{toc}{\contentsline {subsection}{\numberline {5.1}Closed Sets}{11}{subsection.5.1}}
\@writefile{toc}{\contentsline {subsection}{\numberline {5.2}Limit Points}{14}{subsection.5.2}}
\@writefile{toc}{\contentsline {section}{\numberline {6}Continuous Functions}{15}{section.6}}
\@writefile{toc}{\contentsline {section}{\numberline {7}Separation Axioms}{15}{section.7}}
\@writefile{toc}{\contentsline {section}{\numberline {8}Compactness \& Connectedness}{15}{section.8}}
\newlabel{LastPage}{{}{16}{}{page.16}{}}
\xdef\lastpage@lastpage{16}
\xdef\lastpage@lastpageHy{16}
