\relax 
\@writefile{toc}{\contentsline {paragraph}{Problem 2}{1}}
\@writefile{toc}{\contentsline {paragraph}{Problem 3}{1}}
\newlabel{LastPage}{{}{2}}
\xdef\lastpage@lastpage{2}
\gdef\lastpage@lastpageHy{}
