\relax 
\providecommand\hyper@newdestlabel[2]{}
\providecommand\HyperFirstAtBeginDocument{\AtBeginDocument}
\HyperFirstAtBeginDocument{\ifx\hyper@anchor\@undefined
\global\let\oldcontentsline\contentsline
\gdef\contentsline#1#2#3#4{\oldcontentsline{#1}{#2}{#3}}
\global\let\oldnewlabel\newlabel
\gdef\newlabel#1#2{\newlabelxx{#1}#2}
\gdef\newlabelxx#1#2#3#4#5#6{\oldnewlabel{#1}{{#2}{#3}}}
\AtEndDocument{\ifx\hyper@anchor\@undefined
\let\contentsline\oldcontentsline
\let\newlabel\oldnewlabel
\fi}
\fi}
\global\let\hyper@last\relax 
\gdef\HyperFirstAtBeginDocument#1{#1}
\providecommand\HyField@AuxAddToFields[1]{}
\providecommand\HyField@AuxAddToCoFields[2]{}
\@writefile{toc}{\contentsline {paragraph}{Problem 1 - Team Formation}{1}{section*.1}}
\@writefile{loa}{\contentsline {algorithm}{\numberline {1}{\ignorespaces 3-Approximation for Hypergraph Matching}}{1}{algorithm.1}}
\@writefile{toc}{\contentsline {paragraph}{Problem 2 - Team Patrolling}{1}{section*.2}}
\@writefile{toc}{\contentsline {paragraph}{Problem 3 - Vertex Cover via DFS}{2}{section*.3}}
\@writefile{toc}{\contentsline {paragraph}{Problem 4 - Server Optimization}{4}{section*.4}}
\@writefile{toc}{\contentsline {paragraph}{Problem 5 - Scheduling Quadcore Computer}{4}{section*.5}}
\@writefile{toc}{\contentsline {paragraph}{Problem 6 - Recruiting for Social Welfare}{5}{section*.6}}
\newlabel{LastPage}{{}{7}{}{page.7}{}}
\xdef\lastpage@lastpage{7}
\xdef\lastpage@lastpageHy{7}
