\relax 
\providecommand\hyper@newdestlabel[2]{}
\providecommand\HyperFirstAtBeginDocument{\AtBeginDocument}
\HyperFirstAtBeginDocument{\ifx\hyper@anchor\@undefined
\global\let\oldcontentsline\contentsline
\gdef\contentsline#1#2#3#4{\oldcontentsline{#1}{#2}{#3}}
\global\let\oldnewlabel\newlabel
\gdef\newlabel#1#2{\newlabelxx{#1}#2}
\gdef\newlabelxx#1#2#3#4#5#6{\oldnewlabel{#1}{{#2}{#3}}}
\AtEndDocument{\ifx\hyper@anchor\@undefined
\let\contentsline\oldcontentsline
\let\newlabel\oldnewlabel
\fi}
\fi}
\global\let\hyper@last\relax 
\gdef\HyperFirstAtBeginDocument#1{#1}
\providecommand\HyField@AuxAddToFields[1]{}
\providecommand\HyField@AuxAddToCoFields[2]{}
\@writefile{toc}{\contentsline {section}{\numberline {1}Survival Kit}{1}{section.1}}
\@writefile{toc}{\contentsline {paragraph}{Problem 9.1 - Elliptic Equations in Non-Divergence Form}{1}{section*.1}}
\newlabel{Equation}{{{*}}{1}{Problem 9.1 - Elliptic Equations in Non-Divergence Form}{AMS.2}{}}
\@writefile{toc}{\contentsline {paragraph}{Problem 9.2 - Reflection Lemma Towards Boundary Regularity}{2}{section*.3}}
\@writefile{toc}{\contentsline {paragraph}{Problem 9.3 - Horizontal Derivatives}{3}{section*.4}}
\@writefile{toc}{\contentsline {section}{\numberline {2}Project on Bilaplacian}{3}{section.2}}
\@writefile{toc}{\contentsline {paragraph}{Problem 9.4 - Properties of the Bilaplacian}{3}{section*.5}}
\@writefile{toc}{\contentsline {paragraph}{Problem 9.5 - Weak Solution of the Bilaplace Equation}{4}{section*.6}}
\newlabel{LastPage}{{}{5}{}{page.5}{}}
\xdef\lastpage@lastpage{5}
\xdef\lastpage@lastpageHy{5}
