\relax 
\providecommand\hyper@newdestlabel[2]{}
\providecommand\HyperFirstAtBeginDocument{\AtBeginDocument}
\HyperFirstAtBeginDocument{\ifx\hyper@anchor\@undefined
\global\let\oldcontentsline\contentsline
\gdef\contentsline#1#2#3#4{\oldcontentsline{#1}{#2}{#3}}
\global\let\oldnewlabel\newlabel
\gdef\newlabel#1#2{\newlabelxx{#1}#2}
\gdef\newlabelxx#1#2#3#4#5#6{\oldnewlabel{#1}{{#2}{#3}}}
\AtEndDocument{\ifx\hyper@anchor\@undefined
\let\contentsline\oldcontentsline
\let\newlabel\oldnewlabel
\fi}
\fi}
\global\let\hyper@last\relax 
\gdef\HyperFirstAtBeginDocument#1{#1}
\providecommand\HyField@AuxAddToFields[1]{}
\providecommand\HyField@AuxAddToCoFields[2]{}
\@writefile{toc}{\contentsline {section}{\numberline {1}Regression}{1}{section.1}}
\@writefile{toc}{\contentsline {subsection}{Linear Regression}{1}{section*.1}}
\@writefile{toc}{\contentsline {subsection}{Least Squares Model}{1}{section*.2}}
\@writefile{toc}{\contentsline {section}{\numberline {2}KNN \& CV}{1}{section.2}}
\@writefile{toc}{\contentsline {subsection}{Double CV}{1}{section*.3}}
\@writefile{toc}{\contentsline {section}{\numberline {3}Bootstrapping}{1}{section.3}}
\@writefile{toc}{\contentsline {subsection}{Bootstrap CI}{1}{section*.4}}
\@writefile{toc}{\contentsline {section}{\numberline {4}Hypothesis Testing}{1}{section.4}}
\@writefile{toc}{\contentsline {subsection}{Wilcoxon Rank}{2}{section*.5}}
\@writefile{toc}{\contentsline {subsection}{Permutation Test}{2}{section*.6}}
\@writefile{toc}{\contentsline {subsection}{FDR \& FWER}{2}{section*.7}}
\@writefile{toc}{\contentsline {subsection}{Information Criteria}{2}{section*.8}}
\@writefile{toc}{\contentsline {section}{\numberline {5}Ridge \& LASSO}{2}{section.5}}
\@writefile{toc}{\contentsline {section}{\numberline {6}Spline}{2}{section.6}}
\@writefile{toc}{\contentsline {subsection}{GAM \& Backfitting}{2}{section*.9}}
\@writefile{toc}{\contentsline {section}{\numberline {7}CART \& RF}{2}{section.7}}
\newlabel{LastPage}{{}{2}{}{page.2}{}}
\xdef\lastpage@lastpage{2}
\xdef\lastpage@lastpageHy{2}
