\relax 
\@writefile{toc}{\contentsline {part}{I\hspace  {1em}Introduction \& Overview}{1}}
\@writefile{toc}{\contentsline {section}{\numberline {1}Overview}{1}}
\newmarginnote{note.4.1}{{4}{4736286sp}}
\@writefile{toc}{\contentsline {subsection}{\numberline {1.1}Motivation}{1}}
\@writefile{toc}{\contentsline {subsection}{\numberline {1.2}Structures}{2}}
\@writefile{toc}{\contentsline {subsection}{\numberline {1.3}Hierarchy of Spaces}{3}}
\@writefile{toc}{\contentsline {subsection}{\numberline {1.4}Solving Equations}{4}}
\newlabel{PDE-Intro}{{{*}}{4}}
\newmarginnote{note.7.1}{{7}{4736286sp}}
\@writefile{toc}{\contentsline {section}{\numberline {2}Introduction}{5}}
\@writefile{toc}{\contentsline {subsection}{\numberline {2.1}Baire Category Theorem for Complete Metric Spaces}{5}}
\newmarginnote{note.8.1}{{8}{4736286sp}}
\@writefile{toc}{\contentsline {subsection}{\numberline {2.2}Uniform Boundedness Principle}{8}}
\newmarginnote{note.11.1}{{11}{4736286sp}}
\@writefile{toc}{\contentsline {subsection}{\numberline {2.3}Different Notions of Smallness}{10}}
\newmarginnote{note.14.1}{{14}{4736286sp}}
\@writefile{toc}{\contentsline {part}{II\hspace  {1em}Banach Spaces \& Hilbert Spaces}{11}}
\@writefile{toc}{\contentsline {section}{\numberline {3}Banach Spaces}{11}}
\newmarginnote{note.14.2}{{14}{4736286sp}}
\@writefile{toc}{\contentsline {subsection}{\numberline {3.1}Subspaces}{15}}
\@writefile{toc}{\contentsline {subsection}{\numberline {3.2}Unit Spheres}{15}}
\newlabel{Theorem: Unit Ball Compact iff Fin. Dim.}{{3.6}{15}}
\newmarginnote{note.19.1}{{19}{4736286sp}}
\@writefile{toc}{\contentsline {subsection}{\numberline {3.3}Series in Banach Spaces}{19}}
\newmarginnote{note.22.1}{{22}{4736286sp}}
\newlabel{Holder-like inequality}{{{*}}{19}}
\@writefile{toc}{\contentsline {subsection}{\numberline {3.4}Linear Group in a Banach Space}{21}}
\@writefile{toc}{\contentsline {subsection}{\numberline {3.5}Operations on Banach Spaces}{21}}
\newmarginnote{note.25.1}{{25}{4736286sp}}
\newmarginnote{note.27.1}{{27}{4736286sp}}
\newmarginnote{note.28.1}{{28}{4736286sp}}
\@writefile{toc}{\contentsline {section}{\numberline {4}Hilbert Spaces}{26}}
\newmarginnote{note.29.1}{{29}{4736286sp}}
\@writefile{toc}{\contentsline {subsection}{\numberline {4.1}Projection Lemma}{27}}
\newmarginnote{note.30.1}{{30}{4736286sp}}
\@writefile{toc}{\contentsline {subsection}{\numberline {4.2}Orthonormal System \& Hilbertean Basis}{29}}
\@writefile{toc}{\contentsline {part}{III\hspace  {1em}Fundamental Principles of Functional Analysis}{30}}
\@writefile{toc}{\contentsline {section}{\numberline {5}Uniform Boundedness Principle for Banach Spaces}{30}}
\newmarginnote{note.33.1}{{33}{4736286sp}}
\@writefile{toc}{\contentsline {subsection}{\numberline {5.1}Open Mapping Theorem}{32}}
\newmarginnote{note.36.1}{{37}{7711863sp}}
\@writefile{toc}{\contentsline {subsection}{\numberline {5.2}Closed Graph Theorem}{34}}
\@writefile{toc}{\contentsline {subsection}{\numberline {5.3}T\"{o}plitz Criterion}{35}}
\@writefile{toc}{\contentsline {subsection}{\numberline {5.4}Unbounded Operators}{36}}
\newlabel{Theorem: Continuous Inverse Theorem}{{5.8}{36}}
\newmarginnote{note.39.1}{{40}{7687244sp}}
\@writefile{toc}{\contentsline {subsection}{\numberline {5.5}Closable Operators}{37}}
\newmarginnote{note.42.1}{{42}{4736286sp}}
\newmarginnote{note.43.1}{{43}{4736286sp}}
\@writefile{toc}{\contentsline {part}{IV\hspace  {1em}Hahn-Banach Theorems, Convexity, Extremal Points}{41}}
\@writefile{toc}{\contentsline {section}{\numberline {6}Hahn-Banach Theorems}{42}}
\newmarginnote{note.44.1}{{45}{4736286sp}}
\newlabel{Theorem: Hahn-Banach Real}{{6.2}{42}}
\newlabel{Corollary: Hahn-Banach Real}{{6.3}{42}}
\newlabel{Theorem: Hahn-Banach Complex}{{6.8}{44}}
\@writefile{toc}{\contentsline {subsection}{\numberline {6.1}Dual Spaces}{45}}
\newmarginnote{note.48.1}{{48}{4736286sp}}
\@writefile{toc}{\contentsline {subsection}{\numberline {6.2}Geometric Forms of Hahn-Banach}{46}}
\newlabel{Theorem: Geometric Hahn Banach}{{6.13}{46}}
\@writefile{toc}{\contentsline {subsection}{\numberline {6.3}Duality of Hilbert Spaces}{47}}
\newmarginnote{note.50.1}{{50}{4736286sp}}
\@writefile{toc}{\contentsline {subsection}{\numberline {6.4}Duality for $L^p$-Spaces}{49}}
\newmarginnote{note.53.1}{{53}{6984812sp}}
\newmarginnote{note.55.1}{{56}{4736286sp}}
\newmarginnote{note.57.1}{{57}{4736286sp}}
\@writefile{toc}{\contentsline {section}{\numberline {7}Convexity in Infinite Dimensional Vector Spaces}{55}}
\newmarginnote{note.58.1}{{58}{4736286sp}}
\newlabel{Theorem: Separation of Convex Sets}{{7.1}{55}}
\@writefile{toc}{\contentsline {section}{\numberline {8}Extremal Points}{57}}
\newmarginnote{note.60.1}{{60}{4736286sp}}
\newlabel{Theorem: Krein Milman 1}{{8.4}{58}}
\newlabel{Theorem: Krein Milman 2}{{8.6}{58}}
\@writefile{toc}{\contentsline {part}{V\hspace  {1em}Weak Topologies, Reflexility \& Separability}{59}}
\@writefile{toc}{\contentsline {section}{\numberline {9}Weak \& Strong Topologies}{59}}
\@writefile{toc}{\contentsline {subsection}{\numberline {9.1}Weak Topology}{59}}
\newmarginnote{note.62.1}{{62}{10226800sp}}
\newlabel{Theorem: Norm is Lower Semi-Continuous}{{9.2}{59}}
\@writefile{toc}{\contentsline {subsection}{\numberline {9.2}Closure \& Convexity}{62}}
\newmarginnote{note.64.1}{{65}{4736286sp}}
\newlabel{Theorem: Closures of Convex Sets}{{9.7}{62}}
\newmarginnote{note.65.1}{{65}{4736286sp}}
\@writefile{toc}{\contentsline {section}{\numberline {10}Reflexivity \& Separability}{64}}
\@writefile{toc}{\contentsline {subsection}{\numberline {10.1}Reflexivity}{64}}
\@writefile{toc}{\contentsline {subsection}{\numberline {10.2}Separability}{66}}
\newmarginnote{note.68.1}{{69}{10795194sp}}
\@writefile{toc}{\contentsline {subsection}{\numberline {10.3}Application of Reflexivity \& Separability}{67}}
\@writefile{toc}{\contentsline {paragraph}{$\text  {Weak}^*$-Topology:}{67}}
\newlabel{Theorem: Banach-Alaoglu}{{10.10}{67}}
\newmarginnote{note.71.1}{{71}{4736286sp}}
\@writefile{toc}{\contentsline {subsection}{\numberline {10.4}Lower Semicontinuity}{70}}
\newmarginnote{note.74.1}{{74}{4736286sp}}
\@writefile{toc}{\contentsline {part}{VI\hspace  {1em}Adjoint Operators}{73}}
\@writefile{toc}{\contentsline {section}{\numberline {11}Dual \& Compact Operators}{73}}
\@writefile{toc}{\contentsline {subsection}{\numberline {11.1}Dual Operators}{73}}
\newmarginnote{note.76.1}{{76}{4736286sp}}
\@writefile{toc}{\contentsline {subsection}{\numberline {11.2}Isometry Property}{73}}
\newlabel{Proposition: Closed Range Theorem}{{11.4}{75}}
\newlabel{Theorem: Solvability Criterion}{{11.6}{75}}
\@writefile{toc}{\contentsline {subsection}{\numberline {11.3}Compact Operators}{76}}
\newmarginnote{note.79.1}{{79}{4736286sp}}
\newlabel{Lemma: Image of Weak Convergence Sequence under Compact Operators}{{11.8}{76}}
\@writefile{toc}{\contentsline {subsection}{\numberline {11.4}Summary of Compactness Theorems \& Compact Operators}{80}}
\newmarginnote{note.83.1}{{83}{4736286sp}}
\@writefile{toc}{\contentsline {subsection}{\numberline {11.5}Adjunctions in Hilbert Spaces}{81}}
\newmarginnote{note.85.1}{{85}{4736286sp}}
\newmarginnote{note.87.1}{{87}{4736286sp}}
\@writefile{toc}{\contentsline {section}{\numberline {12}Spectral Theory}{85}}
\newmarginnote{note.88.1}{{88}{4736286sp}}
\@writefile{toc}{\contentsline {subsection}{\numberline {12.1}Spectrum \& Resolvent}{85}}
\@writefile{toc}{\contentsline {subsection}{\numberline {12.2}Structure of the Spectrum}{87}}
\newmarginnote{note.89.1}{{90}{4736286sp}}
\@writefile{toc}{\contentsline {subsection}{\numberline {12.3}Spectral Calculus}{89}}
\newmarginnote{note.92.1}{{93}{4736286sp}}
\@writefile{toc}{\contentsline {subsection}{\numberline {12.4}Spectral Theory in Hilbert Spaces}{90}}
\@writefile{toc}{\contentsline {subsection}{\numberline {12.5}Spectral Theorem for Bounded Operators}{93}}
\newmarginnote{note.96.1}{{96}{4736286sp}}
\@writefile{toc}{\contentsline {subsection}{\numberline {12.6}Spectral Theory Over $ {\mathbb  {R}} $}{97}}
\newmarginnote{note.99.1}{{100}{4736286sp}}
\@writefile{toc}{\contentsline {section}{\numberline {13}Christmas Special}{98}}
\@writefile{toc}{\contentsline {subsection}{\numberline {13.1}Dirichlet Spectrum of $A$}{98}}
\newmarginnote{note.100.1}{{101}{4736286sp}}
\newmarginnote{note.102.1}{{102}{4736286sp}}
\newlabel{LastPage}{{}{102}}
\xdef\lastpage@lastpage{102}
\gdef\lastpage@lastpageHy{}
