\relax 
\providecommand\hyper@newdestlabel[2]{}
\providecommand\HyperFirstAtBeginDocument{\AtBeginDocument}
\HyperFirstAtBeginDocument{\ifx\hyper@anchor\@undefined
\global\let\oldcontentsline\contentsline
\gdef\contentsline#1#2#3#4{\oldcontentsline{#1}{#2}{#3}}
\global\let\oldnewlabel\newlabel
\gdef\newlabel#1#2{\newlabelxx{#1}#2}
\gdef\newlabelxx#1#2#3#4#5#6{\oldnewlabel{#1}{{#2}{#3}}}
\AtEndDocument{\ifx\hyper@anchor\@undefined
\let\contentsline\oldcontentsline
\let\newlabel\oldnewlabel
\fi}
\fi}
\global\let\hyper@last\relax 
\gdef\HyperFirstAtBeginDocument#1{#1}
\providecommand\HyField@AuxAddToFields[1]{}
\providecommand\HyField@AuxAddToCoFields[2]{}
\@writefile{toc}{\contentsline {paragraph}{Problem 1 - FPRAS for Satisfaction Probability of DNF's}{1}{section*.1}}
\@writefile{toc}{\contentsline {paragraph}{Problem 2 - Max Directed Cut Approximation}{3}{section*.2}}
\@writefile{toc}{\contentsline {paragraph}{Problem 3 - Alternative Randomized Rounding for MAX-SAT}{4}{section*.3}}
\@writefile{toc}{\contentsline {paragraph}{Problem 4 - Approximation for Modified MAX-SAT}{7}{section*.4}}
\@writefile{toc}{\contentsline {paragraph}{Problem 5 - $k$-median in Metric Space}{9}{section*.7}}
\@writefile{toc}{\contentsline {paragraph}{Problem 6 - Alternative Approach for Number of Distinct Elements}{12}{section*.8}}
\newlabel{LastPage}{{}{14}{}{page.14}{}}
\xdef\lastpage@lastpage{14}
\xdef\lastpage@lastpageHy{14}
