\relax 
\providecommand\hyper@newdestlabel[2]{}
\providecommand\HyperFirstAtBeginDocument{\AtBeginDocument}
\HyperFirstAtBeginDocument{\ifx\hyper@anchor\@undefined
\global\let\oldcontentsline\contentsline
\gdef\contentsline#1#2#3#4{\oldcontentsline{#1}{#2}{#3}}
\global\let\oldnewlabel\newlabel
\gdef\newlabel#1#2{\newlabelxx{#1}#2}
\gdef\newlabelxx#1#2#3#4#5#6{\oldnewlabel{#1}{{#2}{#3}}}
\AtEndDocument{\ifx\hyper@anchor\@undefined
\let\contentsline\oldcontentsline
\let\newlabel\oldnewlabel
\fi}
\fi}
\global\let\hyper@last\relax 
\gdef\HyperFirstAtBeginDocument#1{#1}
\providecommand\HyField@AuxAddToFields[1]{}
\providecommand\HyField@AuxAddToCoFields[2]{}
\@writefile{toc}{\contentsline {section}{\numberline {1}Bachman-Landau Notations/Asymptotic Notations}{1}{section.1}}
\@writefile{toc}{\contentsline {section}{\numberline {2}Simple Analytical Bounds}{1}{section.2}}
\@writefile{toc}{\contentsline {section}{\numberline {3}Concentration Inequalitites}{2}{section.3}}
\@writefile{toc}{\contentsline {section}{\numberline {4}Conjunctive Normal Form/Disjunctive Normal Form}{3}{section.4}}
\@writefile{toc}{\contentsline {section}{\numberline {5}Basics}{3}{section.5}}
\@writefile{toc}{\contentsline {subsection}{\numberline {5.1}Hamiltonian Path}{3}{subsection.5.1}}
\@writefile{toc}{\contentsline {section}{\numberline {6}Alteration Methods}{3}{section.6}}
\@writefile{toc}{\contentsline {subsection}{\numberline {6.1}Uniform Hypergraphs}{4}{subsection.6.1}}
\@writefile{toc}{\contentsline {section}{\numberline {7}Dependent Random Choice}{4}{section.7}}
\@writefile{toc}{\contentsline {section}{\numberline {8}Methods of Moments}{4}{section.8}}
\@writefile{toc}{\contentsline {subsection}{\numberline {8.1}Sum Free Sets \& Prime Divisor}{4}{subsection.8.1}}
\@writefile{toc}{\contentsline {subsection}{\numberline {8.2}Random Graphs}{4}{subsection.8.2}}
\@writefile{toc}{\contentsline {section}{\numberline {9}Concentration Bounds}{5}{section.9}}
\@writefile{toc}{\contentsline {subsection}{\numberline {9.1}Tournaments}{5}{subsection.9.1}}
\@writefile{toc}{\contentsline {section}{\numberline {10}Lov\'{a}sz Local Lemma}{5}{section.10}}
\@writefile{toc}{\contentsline {subsection}{\numberline {10.1}2-Colourable Hypergraphs}{5}{subsection.10.1}}
\@writefile{toc}{\contentsline {subsection}{\numberline {10.2}Directed Cycles}{5}{subsection.10.2}}
\@writefile{toc}{\contentsline {section}{\numberline {11}Martingale}{5}{section.11}}
\@writefile{toc}{\contentsline {subsection}{\numberline {11.1}Chromatic Number of Random Graph}{6}{subsection.11.1}}
\@writefile{toc}{\contentsline {section}{\numberline {12}Correlation Inequality}{6}{section.12}}
\newlabel{LastPage}{{}{6}{}{page.6}{}}
\xdef\lastpage@lastpage{6}
\xdef\lastpage@lastpageHy{6}
