\relax 
\providecommand\hyper@newdestlabel[2]{}
\providecommand\HyperFirstAtBeginDocument{\AtBeginDocument}
\HyperFirstAtBeginDocument{\ifx\hyper@anchor\@undefined
\global\let\oldcontentsline\contentsline
\gdef\contentsline#1#2#3#4{\oldcontentsline{#1}{#2}{#3}}
\global\let\oldnewlabel\newlabel
\gdef\newlabel#1#2{\newlabelxx{#1}#2}
\gdef\newlabelxx#1#2#3#4#5#6{\oldnewlabel{#1}{{#2}{#3}}}
\AtEndDocument{\ifx\hyper@anchor\@undefined
\let\contentsline\oldcontentsline
\let\newlabel\oldnewlabel
\fi}
\fi}
\global\let\hyper@last\relax 
\gdef\HyperFirstAtBeginDocument#1{#1}
\providecommand\HyField@AuxAddToFields[1]{}
\providecommand\HyField@AuxAddToCoFields[2]{}
\@writefile{toc}{\contentsline {section}{\numberline {1}Survival Kit}{1}{section.1}}
\@writefile{toc}{\contentsline {paragraph}{Problem 6.1 - Inextendible}{1}{section*.1}}
\@writefile{toc}{\contentsline {paragraph}{Problem 6.2 - Zero Trace and $H^1_0$}{1}{section*.2}}
\@writefile{toc}{\contentsline {paragraph}{Problem 6.3 - Lady\v {z}enskaja Inequality}{2}{section*.3}}
\@writefile{toc}{\contentsline {section}{\numberline {2}Project on Compact Embeddings}{2}{section.2}}
\@writefile{toc}{\contentsline {paragraph}{Problem 6.4 - Non-Compactness}{2}{section*.4}}
\@writefile{toc}{\contentsline {paragraph}{Problem 6.5 - Compactness}{2}{section*.5}}
\newlabel{LastPage}{{}{3}{}{page.3}{}}
\xdef\lastpage@lastpage{3}
\xdef\lastpage@lastpageHy{3}
