\relax 
\providecommand\hyper@newdestlabel[2]{}
\providecommand\HyperFirstAtBeginDocument{\AtBeginDocument}
\HyperFirstAtBeginDocument{\ifx\hyper@anchor\@undefined
\global\let\oldcontentsline\contentsline
\gdef\contentsline#1#2#3#4{\oldcontentsline{#1}{#2}{#3}}
\global\let\oldnewlabel\newlabel
\gdef\newlabel#1#2{\newlabelxx{#1}#2}
\gdef\newlabelxx#1#2#3#4#5#6{\oldnewlabel{#1}{{#2}{#3}}}
\AtEndDocument{\ifx\hyper@anchor\@undefined
\let\contentsline\oldcontentsline
\let\newlabel\oldnewlabel
\fi}
\fi}
\global\let\hyper@last\relax 
\gdef\HyperFirstAtBeginDocument#1{#1}
\providecommand\HyField@AuxAddToFields[1]{}
\providecommand\HyField@AuxAddToCoFields[2]{}
\@writefile{toc}{\contentsline {section}{\numberline {1}Introduction}{1}{section.1}}
\newmarginnote{note.3.1}{{3}{4736286sp}}
\@writefile{toc}{\contentsline {subsection}{\numberline {1.1}Entropy}{1}{subsection.1.1}}
\@writefile{toc}{\contentsline {subsection}{\numberline {1.2}Properties of Entropy}{2}{subsection.1.2}}
\@writefile{toc}{\contentsline {subsection}{\numberline {1.3}Relative Entropy}{2}{subsection.1.3}}
\@writefile{toc}{\contentsline {subsection}{\numberline {1.4}Jensen's Inequality}{3}{subsection.1.4}}
\newmarginnote{note.4.1}{{5}{4736286sp}}
\newlabel{DPQ Jensen}{{{*}}{3}{Jensen's Inequality}{AMS.3}{}}
\@writefile{toc}{\contentsline {section}{\numberline {2}Chain Rule}{4}{section.2}}
\@writefile{toc}{\contentsline {subsection}{\numberline {2.1}Mutual Information}{5}{subsection.2.1}}
\@writefile{toc}{\contentsline {subsection}{\numberline {2.2}Conditional Mutual Information}{5}{subsection.2.2}}
\newmarginnote{note.7.1}{{7}{5076789sp}}
\newlabel{Chain Rule: Multi-Variable General}{{{*}}{5}{Conditional Mutual Information}{AMS.5}{}}
\@writefile{toc}{\contentsline {subsection}{\numberline {2.3}Fano's Inequality}{6}{subsection.2.3}}
\@writefile{toc}{\contentsline {section}{\numberline {3}Encoding \& Decoding}{6}{section.3}}
\@writefile{toc}{\contentsline {subsection}{\numberline {3.1}One-to-variable Encoding}{6}{subsection.3.1}}
\@writefile{toc}{\contentsline {subsection}{\numberline {3.2}Prefix Free Codes and Rooted Binary Trees}{7}{subsection.3.2}}
\newmarginnote{note.10.1}{{10}{4736286sp}}
\@writefile{toc}{\contentsline {subsection}{\numberline {3.3}Fixed-to-variable Uniquely Decodable Code}{9}{subsection.3.3}}
\@writefile{toc}{\contentsline {subsection}{\numberline {3.4}Huffman Procedure}{10}{subsection.3.4}}
\newmarginnote{note.12.1}{{12}{4736286sp}}
\@writefile{toc}{\contentsline {section}{\numberline {4}Typicality}{10}{section.4}}
\@writefile{toc}{\contentsline {subsection}{\numberline {4.1}Expected Description Length}{12}{subsection.4.1}}
\newmarginnote{note.14.1}{{14}{4736286sp}}
\@writefile{toc}{\contentsline {subsection}{\numberline {4.2}Entropy is Concave}{14}{subsection.4.2}}
\@writefile{toc}{\contentsline {subsection}{\numberline {4.3}Log-Sum Inequality}{14}{subsection.4.3}}
\@writefile{toc}{\contentsline {subsection}{\numberline {4.4}Relative Entropy is Convex}{14}{subsection.4.4}}
\newmarginnote{note.17.1}{{17}{4736286sp}}
\@writefile{toc}{\contentsline {section}{\numberline {5}Channel}{16}{section.5}}
\@writefile{toc}{\contentsline {subsection}{\numberline {5.1}Weakly Symmetric Channel}{17}{subsection.5.1}}
\newmarginnote{note.19.1}{{19}{4736286sp}}
\@writefile{toc}{\contentsline {subsection}{\numberline {5.2}Conditional Independence \& Data Processing Inequality}{19}{subsection.5.2}}
\@writefile{toc}{\contentsline {subsection}{\numberline {5.3}Joint Weak Typicality}{19}{subsection.5.3}}
\newmarginnote{note.21.1}{{22}{4736286sp}}
\@writefile{toc}{\contentsline {subsection}{\numberline {5.4}Weak Typicality Decoding}{20}{subsection.5.4}}
\newmarginnote{note.23.1}{{23}{4736286sp}}
\@writefile{toc}{\contentsline {section}{\numberline {6}Lossy Compression}{23}{section.6}}
\newmarginnote{note.25.1}{{25}{4736286sp}}
\newmarginnote{note.27.1}{{27}{4736286sp}}
\newmarginnote{note.28.1}{{29}{4736286sp}}
\newmarginnote{note.31.1}{{31}{4736286sp}}
\newlabel{LastPage}{{}{33}{}{page.33}{}}
\xdef\lastpage@lastpage{33}
\xdef\lastpage@lastpageHy{33}
