\relax 
\providecommand\hyper@newdestlabel[2]{}
\providecommand\HyperFirstAtBeginDocument{\AtBeginDocument}
\HyperFirstAtBeginDocument{\ifx\hyper@anchor\@undefined
\global\let\oldcontentsline\contentsline
\gdef\contentsline#1#2#3#4{\oldcontentsline{#1}{#2}{#3}}
\global\let\oldnewlabel\newlabel
\gdef\newlabel#1#2{\newlabelxx{#1}#2}
\gdef\newlabelxx#1#2#3#4#5#6{\oldnewlabel{#1}{{#2}{#3}}}
\AtEndDocument{\ifx\hyper@anchor\@undefined
\let\contentsline\oldcontentsline
\let\newlabel\oldnewlabel
\fi}
\fi}
\global\let\hyper@last\relax 
\gdef\HyperFirstAtBeginDocument#1{#1}
\providecommand\HyField@AuxAddToFields[1]{}
\providecommand\HyField@AuxAddToCoFields[2]{}
\@writefile{toc}{\contentsline {section}{\numberline {1}Survival Kit}{1}{section.1}}
\@writefile{toc}{\contentsline {paragraph}{Problem 2.1 - Weak First Derivative}{1}{section*.1}}
\@writefile{toc}{\contentsline {paragraph}{Problem 2.2 - Weak Derivative in $L^p(\Omega )$}{1}{section*.2}}
\@writefile{toc}{\contentsline {paragraph}{Problem 2.3 - Cantor Function}{1}{section*.3}}
\@writefile{toc}{\contentsline {section}{\numberline {2}Project on Green's Functions for Laplacian}{1}{section.2}}
\@writefile{toc}{\contentsline {paragraph}{Problem 2.4 - Symmetry on Green's Function}{1}{section*.4}}
\@writefile{toc}{\contentsline {paragraph}{Problem 2.5 - Green's Function for the Half Space}{1}{section*.5}}
\@writefile{toc}{\contentsline {paragraph}{Problem 2.6 - Green's Function for an Interval}{1}{section*.6}}
\newlabel{LastPage}{{}{1}{}{page.1}{}}
\xdef\lastpage@lastpage{1}
\xdef\lastpage@lastpageHy{1}
