\relax 
\providecommand\hyper@newdestlabel[2]{}
\providecommand\HyperFirstAtBeginDocument{\AtBeginDocument}
\HyperFirstAtBeginDocument{\ifx\hyper@anchor\@undefined
\global\let\oldcontentsline\contentsline
\gdef\contentsline#1#2#3#4{\oldcontentsline{#1}{#2}{#3}}
\global\let\oldnewlabel\newlabel
\gdef\newlabel#1#2{\newlabelxx{#1}#2}
\gdef\newlabelxx#1#2#3#4#5#6{\oldnewlabel{#1}{{#2}{#3}}}
\AtEndDocument{\ifx\hyper@anchor\@undefined
\let\contentsline\oldcontentsline
\let\newlabel\oldnewlabel
\fi}
\fi}
\global\let\hyper@last\relax 
\gdef\HyperFirstAtBeginDocument#1{#1}
\providecommand\HyField@AuxAddToFields[1]{}
\providecommand\HyField@AuxAddToCoFields[2]{}
\@writefile{toc}{\contentsline {paragraph}{Problem 1}{1}{section*.1}}
\@writefile{lof}{\contentsline {figure}{\numberline {1}{\ignorespaces Frohe Weihnachten! \unhbox \voidb@x \hbox {\fontencoding  {U}\fontfamily  {wasy}\selectfont  \char 44}}}{2}{figure.1}}
\@writefile{toc}{\contentsline {paragraph}{Problem 2}{3}{section*.2}}
\@writefile{toc}{\contentsline {paragraph}{Problem 4}{4}{section*.3}}
\@writefile{toc}{\contentsline {paragraph}{Problem 3}{5}{section*.4}}
\newlabel{LastPage}{{}{5}{}{page.5}{}}
\xdef\lastpage@lastpage{5}
\xdef\lastpage@lastpageHy{5}
