\relax 
\providecommand\hyper@newdestlabel[2]{}
\providecommand\HyperFirstAtBeginDocument{\AtBeginDocument}
\HyperFirstAtBeginDocument{\ifx\hyper@anchor\@undefined
\global\let\oldcontentsline\contentsline
\gdef\contentsline#1#2#3#4{\oldcontentsline{#1}{#2}{#3}}
\global\let\oldnewlabel\newlabel
\gdef\newlabel#1#2{\newlabelxx{#1}#2}
\gdef\newlabelxx#1#2#3#4#5#6{\oldnewlabel{#1}{{#2}{#3}}}
\AtEndDocument{\ifx\hyper@anchor\@undefined
\let\contentsline\oldcontentsline
\let\newlabel\oldnewlabel
\fi}
\fi}
\global\let\hyper@last\relax 
\gdef\HyperFirstAtBeginDocument#1{#1}
\providecommand\HyField@AuxAddToFields[1]{}
\providecommand\HyField@AuxAddToCoFields[2]{}
\@writefile{toc}{\contentsline {section}{\numberline {1}Survival Kit}{1}{section.1}}
\@writefile{toc}{\contentsline {paragraph}{Problem 7.1 - Completeness of Companato Spaces}{1}{section*.1}}
\@writefile{toc}{\contentsline {paragraph}{Problem 7.2 - Vanishing Weak Gradient}{2}{section*.2}}
\@writefile{toc}{\contentsline {paragraph}{Problem 7.3 - H\"{o}lder Continuity of Functions in $W^{2,n}$}{2}{section*.3}}
\@writefile{toc}{\contentsline {paragraph}{Problem 7.4 - Uniform Bounds on Functions in $W^{n,1}$}{2}{section*.4}}
\@writefile{toc}{\contentsline {section}{\numberline {2}Project on Poincar\'{e} Inequality}{2}{section.2}}
\@writefile{toc}{\contentsline {paragraph}{Problem 7.5 - A Variant of the Poincar\'{e} Inequality}{2}{section*.5}}
\@writefile{toc}{\contentsline {paragraph}{Problem 7.6 - Explosion of Poincar\'{e} Constant}{3}{section*.6}}
\newlabel{LastPage}{{}{3}{}{page.3}{}}
\xdef\lastpage@lastpage{3}
\xdef\lastpage@lastpageHy{3}
