\relax 
\providecommand\hyper@newdestlabel[2]{}
\providecommand\HyperFirstAtBeginDocument{\AtBeginDocument}
\HyperFirstAtBeginDocument{\ifx\hyper@anchor\@undefined
\global\let\oldcontentsline\contentsline
\gdef\contentsline#1#2#3#4{\oldcontentsline{#1}{#2}{#3}}
\global\let\oldnewlabel\newlabel
\gdef\newlabel#1#2{\newlabelxx{#1}#2}
\gdef\newlabelxx#1#2#3#4#5#6{\oldnewlabel{#1}{{#2}{#3}}}
\AtEndDocument{\ifx\hyper@anchor\@undefined
\let\contentsline\oldcontentsline
\let\newlabel\oldnewlabel
\fi}
\fi}
\global\let\hyper@last\relax 
\gdef\HyperFirstAtBeginDocument#1{#1}
\providecommand\HyField@AuxAddToFields[1]{}
\providecommand\HyField@AuxAddToCoFields[2]{}
\@writefile{toc}{\contentsline {section}{\numberline {1}Basics}{1}{section.1}}
\@writefile{toc}{\contentsline {subsection}{\numberline {1.1}Ramsey Theory}{1}{subsection.1.1}}
\newmarginnote{note.3.1}{{3}{9915552sp}}
\@writefile{toc}{\contentsline {subsection}{\numberline {1.2}Hypergraph Colouring}{2}{subsection.1.2}}
\newmarginnote{note.4.1}{{4}{4736286sp}}
\@writefile{toc}{\contentsline {section}{\numberline {2}Methods Using Expectations}{3}{section.2}}
\@writefile{toc}{\contentsline {subsection}{\numberline {2.1}Maximum Cut}{3}{subsection.2.1}}
\@writefile{toc}{\contentsline {subsection}{\numberline {2.2}Tournaments \& Hamiltonian Paths}{4}{subsection.2.2}}
\@writefile{toc}{\contentsline {subsection}{\numberline {2.3}Combinatorial Number Theory}{4}{subsection.2.3}}
\newmarginnote{note.6.1}{{6}{6984812sp}}
\@writefile{toc}{\contentsline {subsection}{\numberline {2.4}Br\'{e}gman's Theorem}{5}{subsection.2.4}}
\newlabel{Theorem: Bregman Theorem}{{2.6}{5}{}{thm.2.6}{}}
\newmarginnote{note.8.1}{{8}{6984812sp}}
\@writefile{toc}{\contentsline {section}{\numberline {3}Alteration Methods}{7}{section.3}}
\newmarginnote{note.9.1}{{9}{4736286sp}}
\@writefile{toc}{\contentsline {subsection}{\numberline {3.1}Graphs with Large Girth Large Chromatic Number}{7}{subsection.3.1}}
\@writefile{toc}{\contentsline {subsection}{\numberline {3.2}Non 2-Colourable $n$-Uniform Hypergraph}{8}{subsection.3.2}}
\@writefile{toc}{\contentsline {section}{\numberline {4}Dependent Random Choice}{9}{section.4}}
\newmarginnote{note.12.1}{{12}{4736286sp}}
\@writefile{toc}{\contentsline {section}{\numberline {5}Methods of Moments}{11}{section.5}}
\@writefile{toc}{\contentsline {subsection}{\numberline {5.1}Second Moment Method}{11}{subsection.5.1}}
\@writefile{toc}{\contentsline {subsection}{\numberline {5.2}Sum-Free Sets}{11}{subsection.5.2}}
\newmarginnote{note.13.1}{{14}{4975492sp}}
\@writefile{toc}{\contentsline {subsection}{\numberline {5.3}Prime Divisors of a Number}{12}{subsection.5.3}}
\@writefile{toc}{\contentsline {subsection}{\numberline {5.4}Random Graphs}{13}{subsection.5.4}}
\newmarginnote{note.16.1}{{16}{9934015sp}}
\@writefile{toc}{\contentsline {subsection}{\numberline {5.5}Chromatic Number of $G(n,\frac  {1}{2})$}{14}{subsection.5.5}}
\@writefile{toc}{\contentsline {section}{\numberline {6}Convergence \& Concentration}{15}{section.6}}
\@writefile{toc}{\contentsline {subsection}{\numberline {6.1}Chernoff's Inequality}{15}{subsection.6.1}}
\@writefile{toc}{\contentsline {subsection}{\numberline {6.2}Tournaments}{16}{subsection.6.2}}
\newlabel{Theorem: Lower bound upsets}{{6.3}{16}{}{thm.6.3}{}}
\newmarginnote{note.18.1}{{18}{4736286sp}}
\@writefile{toc}{\contentsline {section}{\numberline {7}Lov\'{a}sz Local Lemma}{18}{section.7}}
\@writefile{toc}{\contentsline {subsection}{\numberline {7.1}Motivating Examples}{19}{subsection.7.1}}
\newmarginnote{note.20.1}{{21}{4736286sp}}
\@writefile{toc}{\contentsline {subsection}{\numberline {7.2}Proof of Local Lemma}{20}{subsection.7.2}}
\@writefile{toc}{\contentsline {subsection}{\numberline {7.3}Post Proof Motivating Example}{20}{subsection.7.3}}
\@writefile{toc}{\contentsline {section}{\numberline {8}Martingale}{21}{section.8}}
\newmarginnote{note.23.1}{{23}{4736286sp}}
\@writefile{toc}{\contentsline {subsection}{\numberline {8.1}Azuma-Hoeffding Inequality}{21}{subsection.8.1}}
\@writefile{toc}{\contentsline {subsection}{\numberline {8.2}Concentration of Chromatic Number of Random Graphs}{23}{subsection.8.2}}
\newmarginnote{note.25.1}{{25}{4736286sp}}
\newlabel{Theorem: Chromatic Number Random Graphs}{{8.7}{24}{}{thm.8.7}{}}
\newlabel{Theorem: Clique Number Random Graphs}{{8.8}{24}{}{thm.8.8}{}}
\@writefile{toc}{\contentsline {section}{\numberline {9}Correlation Inequalities}{26}{section.9}}
\newmarginnote{note.28.1}{{28}{4736286sp}}
\@writefile{toc}{\contentsline {subsection}{\numberline {9.1}FKG Inequalities}{26}{subsection.9.1}}
\@writefile{toc}{\contentsline {section}{\numberline {10}Erd\"{o}s-Stone Theorem}{28}{section.10}}
\newmarginnote{note.30.1}{{31}{4736286sp}}
\@writefile{toc}{\contentsline {section}{\numberline {11}Exercise Sessions}{30}{section.11}}
\newlabel{LastPage}{{}{48}{}{page.48}{}}
\xdef\lastpage@lastpage{48}
\xdef\lastpage@lastpageHy{48}
