\BOOKMARK [1][-]{section.1}{Basics}{}% 1
\BOOKMARK [2][-]{subsection.1.1}{Ramsey Theory}{section.1}% 2
\BOOKMARK [2][-]{subsection.1.2}{Hypergraph Colouring}{section.1}% 3
\BOOKMARK [1][-]{section.2}{Methods Using Expectations}{}% 4
\BOOKMARK [2][-]{subsection.2.1}{Maximum Cut}{section.2}% 5
\BOOKMARK [2][-]{subsection.2.2}{Tournaments \046 Hamiltonian Paths}{section.2}% 6
\BOOKMARK [2][-]{subsection.2.3}{Combinatorial Number Theory}{section.2}% 7
\BOOKMARK [2][-]{subsection.2.4}{Br\351gman's Theorem}{section.2}% 8
\BOOKMARK [1][-]{section.3}{Alteration Methods}{}% 9
\BOOKMARK [2][-]{subsection.3.1}{Graphs with Large Girth Large Chromatic Number}{section.3}% 10
\BOOKMARK [2][-]{subsection.3.2}{Non 2-Colourable n-Uniform Hypergraph}{section.3}% 11
\BOOKMARK [1][-]{section.4}{Dependent Random Choice}{}% 12
\BOOKMARK [1][-]{section.5}{Methods of Moments}{}% 13
\BOOKMARK [2][-]{subsection.5.1}{Second Moment Method}{section.5}% 14
\BOOKMARK [2][-]{subsection.5.2}{Sum-Free Sets}{section.5}% 15
\BOOKMARK [2][-]{subsection.5.3}{Prime Divisors of a Number}{section.5}% 16
\BOOKMARK [2][-]{subsection.5.4}{Random Graphs}{section.5}% 17
\BOOKMARK [2][-]{subsection.5.5}{Chromatic Number of G\(n,12\)}{section.5}% 18
\BOOKMARK [1][-]{section.6}{Convergence \046 Concentration}{}% 19
\BOOKMARK [2][-]{subsection.6.1}{Chernoff's Inequality}{section.6}% 20
\BOOKMARK [2][-]{subsection.6.2}{Tournaments}{section.6}% 21
\BOOKMARK [1][-]{section.7}{Lov\341sz Local Lemma}{}% 22
\BOOKMARK [2][-]{subsection.7.1}{Motivating Examples}{section.7}% 23
\BOOKMARK [2][-]{subsection.7.2}{Proof of Local Lemma}{section.7}% 24
\BOOKMARK [2][-]{subsection.7.3}{Post Proof Motivating Example}{section.7}% 25
\BOOKMARK [1][-]{section.8}{Martingale}{}% 26
\BOOKMARK [2][-]{subsection.8.1}{Azuma-Hoeffding Inequality}{section.8}% 27
\BOOKMARK [2][-]{subsection.8.2}{Concentration of Chromatic Number of Random Graphs}{section.8}% 28
\BOOKMARK [1][-]{section.9}{Correlation Inequalities}{}% 29
\BOOKMARK [2][-]{subsection.9.1}{FKG Inequalities}{section.9}% 30
\BOOKMARK [1][-]{section.10}{Erd\366s-Stone Theorem}{}% 31
\BOOKMARK [1][-]{section.11}{Exercise Sessions}{}% 32
