\relax 
\providecommand\hyper@newdestlabel[2]{}
\providecommand\HyperFirstAtBeginDocument{\AtBeginDocument}
\HyperFirstAtBeginDocument{\ifx\hyper@anchor\@undefined
\global\let\oldcontentsline\contentsline
\gdef\contentsline#1#2#3#4{\oldcontentsline{#1}{#2}{#3}}
\global\let\oldnewlabel\newlabel
\gdef\newlabel#1#2{\newlabelxx{#1}#2}
\gdef\newlabelxx#1#2#3#4#5#6{\oldnewlabel{#1}{{#2}{#3}}}
\AtEndDocument{\ifx\hyper@anchor\@undefined
\let\contentsline\oldcontentsline
\let\newlabel\oldnewlabel
\fi}
\fi}
\global\let\hyper@last\relax 
\gdef\HyperFirstAtBeginDocument#1{#1}
\providecommand\HyField@AuxAddToFields[1]{}
\providecommand\HyField@AuxAddToCoFields[2]{}
\@writefile{toc}{\contentsline {section}{\numberline {1}Bachman-Landau Notations/Asymptotic Notations}{1}{section.1}}
\@writefile{toc}{\contentsline {section}{\numberline {2}Simple Analytical Bounds}{1}{section.2}}
\@writefile{toc}{\contentsline {section}{\numberline {3}Concentration Inequalitites}{2}{section.3}}
\@writefile{toc}{\contentsline {section}{\numberline {4}Methods of Moments}{3}{section.4}}
\@writefile{toc}{\contentsline {section}{\numberline {5}Negative Correlation}{4}{section.5}}
\@writefile{toc}{\contentsline {section}{\numberline {6}Markov Chains}{4}{section.6}}
\@writefile{toc}{\contentsline {section}{\numberline {7}Conjunctive Normal Form/Disjunctive Normal Form}{5}{section.7}}
\@writefile{toc}{\contentsline {section}{\numberline {8}Coupon Collector}{5}{section.8}}
\@writefile{toc}{\contentsline {section}{\numberline {9}Hitting Times}{5}{section.9}}
\@writefile{toc}{\contentsline {section}{\numberline {10}Monte Carlo/Las Vegas Algorithm}{6}{section.10}}
\newlabel{LastPage}{{}{6}{}{page.6}{}}
\xdef\lastpage@lastpage{6}
\xdef\lastpage@lastpageHy{6}
