\relax 
\providecommand\hyper@newdestlabel[2]{}
\providecommand\HyperFirstAtBeginDocument{\AtBeginDocument}
\HyperFirstAtBeginDocument{\ifx\hyper@anchor\@undefined
\global\let\oldcontentsline\contentsline
\gdef\contentsline#1#2#3#4{\oldcontentsline{#1}{#2}{#3}}
\global\let\oldnewlabel\newlabel
\gdef\newlabel#1#2{\newlabelxx{#1}#2}
\gdef\newlabelxx#1#2#3#4#5#6{\oldnewlabel{#1}{{#2}{#3}}}
\AtEndDocument{\ifx\hyper@anchor\@undefined
\let\contentsline\oldcontentsline
\let\newlabel\oldnewlabel
\fi}
\fi}
\global\let\hyper@last\relax 
\gdef\HyperFirstAtBeginDocument#1{#1}
\providecommand\HyField@AuxAddToFields[1]{}
\providecommand\HyField@AuxAddToCoFields[2]{}
\@writefile{toc}{\contentsline {paragraph}{Problem 1.1}{1}{section*.1}}
\@writefile{loa}{\contentsline {algorithm}{\numberline {1}{\ignorespaces Greedy Algorithm for Submodular Function $f$}}{1}{algorithm.1}}
\@writefile{toc}{\contentsline {paragraph}{Problem 1.2}{1}{section*.2}}
\@writefile{loa}{\contentsline {algorithm}{\numberline {2}{\ignorespaces Greedy Algorithm for CDS}}{1}{algorithm.2}}
\@writefile{toc}{\contentsline {paragraph}{Problem 1.3}{2}{section*.3}}
\@writefile{loa}{\contentsline {algorithm}{\numberline {3}{\ignorespaces Algorithm for Maximum Weight Matroid}}{2}{algorithm.3}}
\@writefile{toc}{\contentsline {paragraph}{Problem 1.4}{2}{section*.4}}
\@writefile{loa}{\contentsline {algorithm}{\numberline {4}{\ignorespaces Greedy Algorithm for Hypercube Walking}}{2}{algorithm.4}}
\@writefile{toc}{\contentsline {paragraph}{Problem 1.5}{2}{section*.5}}
\@writefile{loa}{\contentsline {algorithm}{\numberline {5}{\ignorespaces Greedy Algorithm for $k$-Center Problem}}{3}{algorithm.5}}
\newlabel{LastPage}{{}{3}{}{page.3}{}}
\xdef\lastpage@lastpage{3}
\xdef\lastpage@lastpageHy{3}
